<?xml version="1.0" encoding="utf-8"?>
<!-- Generator: Adobe Illustrator 16.0.0, SVG Export Plug-In . SVG Version: 6.00 Build 0)  -->
<!DOCTYPE svg PUBLIC "-//W3C//DTD SVG 1.1//EN" "http://www.w3.org/Graphics/SVG/1.1/DTD/svg11.dtd">
<svg version="1.1" id="Vrstva_1" xmlns="http://www.w3.org/2000/svg" xmlns:xlink="http://www.w3.org/1999/xlink" x="0px" y="0px"
	 width="100px" height="30px" viewBox="0 0 100 30" enable-background="new 0 0 100 30" xml:space="preserve">
<g>
	<path d="M12.504,16.472c0.299,0.157,0.779,0.315,1.268,0.315c0.525,0,0.805-0.218,0.805-0.556c0-0.308-0.24-0.496-0.85-0.706
		c-0.84-0.3-1.396-0.766-1.396-1.509c0-0.863,0.729-1.517,1.914-1.517c0.578,0,0.992,0.112,1.293,0.255l-0.256,0.916
		c-0.195-0.098-0.562-0.24-1.051-0.24c-0.496,0-0.736,0.233-0.736,0.488c0,0.323,0.277,0.466,0.939,0.721
		c0.893,0.33,1.305,0.796,1.305,1.517c0,0.849-0.645,1.569-2.033,1.569c-0.578,0-1.148-0.158-1.434-0.315L12.504,16.472z"/>
	<path d="M17.711,17.643l-1.621-5.06h1.254l0.615,2.14c0.172,0.607,0.33,1.179,0.451,1.809h0.021
		c0.127-0.607,0.285-1.208,0.459-1.786l0.645-2.162h1.217l-1.705,5.06H17.711z"/>
	<path d="M22.279,12.583h1.143v3.197c0,1.441-0.691,1.945-1.795,1.945c-0.27,0-0.615-0.046-0.842-0.12l0.129-0.924
		c0.156,0.053,0.359,0.09,0.586,0.09c0.48,0,0.779-0.218,0.779-0.998V12.583z"/>
	<path d="M27.402,12.657c0.422-0.074,0.969-0.112,1.539-0.112c0.969,0,1.6,0.158,2.08,0.525c0.525,0.391,0.855,1.021,0.855,1.922
		c0,0.969-0.352,1.637-0.832,2.05c-0.533,0.443-1.352,0.653-2.344,0.653c-0.592,0-1.02-0.038-1.299-0.075V12.657z M28.545,16.779
		c0.098,0.022,0.262,0.022,0.396,0.022c1.045,0.008,1.727-0.563,1.727-1.771c0-1.089-0.615-1.606-1.605-1.606
		c-0.248,0-0.42,0.022-0.518,0.045V16.779z"/>
	<path d="M35.629,16.757c0,0.346,0.014,0.683,0.059,0.886H34.66l-0.068-0.368H34.57c-0.24,0.293-0.617,0.451-1.051,0.451
		c-0.744,0-1.188-0.541-1.188-1.127c0-0.953,0.855-1.403,2.154-1.403V15.15c0-0.195-0.104-0.474-0.668-0.474
		c-0.375,0-0.773,0.128-1.014,0.271l-0.209-0.728c0.254-0.144,0.758-0.331,1.426-0.331c1.225,0,1.607,0.721,1.607,1.584V16.757z
		 M34.525,15.908c-0.602,0-1.066,0.143-1.066,0.578c0,0.293,0.195,0.436,0.449,0.436c0.279,0,0.52-0.188,0.594-0.421
		c0.016-0.06,0.023-0.127,0.023-0.194V15.908z"/>
	<path d="M36.527,16.651c0.211,0.128,0.645,0.271,0.982,0.271c0.346,0,0.488-0.112,0.488-0.3c0-0.195-0.111-0.286-0.533-0.429
		c-0.766-0.247-1.059-0.668-1.051-1.096c0-0.69,0.586-1.209,1.494-1.209c0.428,0,0.803,0.105,1.029,0.218l-0.195,0.781
		c-0.166-0.083-0.488-0.203-0.797-0.203c-0.277,0-0.436,0.112-0.436,0.293c0,0.18,0.143,0.271,0.594,0.428
		c0.699,0.232,0.984,0.593,0.99,1.126c0,0.69-0.531,1.194-1.584,1.194c-0.48,0-0.908-0.113-1.186-0.264L36.527,16.651z
		 M37.346,13.528l-0.744-1.141h0.736l0.383,0.66h0.016l0.383-0.66h0.734l-0.742,1.141H37.346z"/>
	<path d="M40.354,13.491c-0.383,0-0.631-0.271-0.631-0.608c0-0.345,0.256-0.608,0.646-0.608s0.631,0.264,0.637,0.608
		c0,0.338-0.246,0.608-0.645,0.608H40.354z M39.791,17.643v-3.671h1.141v3.671H39.791z"/>
	<path d="M44.602,17.553c-0.203,0.098-0.586,0.173-1.021,0.173c-1.186,0-1.943-0.729-1.943-1.885c0-1.073,0.734-1.952,2.102-1.952
		c0.301,0,0.631,0.053,0.871,0.143l-0.182,0.849c-0.135-0.061-0.336-0.112-0.637-0.112c-0.602,0-0.992,0.428-0.984,1.028
		c0,0.676,0.451,1.036,1.006,1.036c0.271,0,0.48-0.045,0.654-0.12L44.602,17.553z"/>
	<path d="M46.371,15.525h0.016c0.082-0.157,0.172-0.308,0.262-0.442l0.744-1.111h1.373l-1.314,1.486l1.502,2.185h-1.404
		l-0.893-1.509l-0.285,0.367v1.142H45.23v-5.33h1.141V15.525z"/>
	<path d="M52.352,16.757c0,0.346,0.016,0.683,0.061,0.886h-1.029l-0.066-0.368h-0.023c-0.24,0.293-0.615,0.451-1.051,0.451
		c-0.742,0-1.186-0.541-1.186-1.127c0-0.953,0.855-1.403,2.154-1.403V15.15c0-0.195-0.105-0.474-0.668-0.474
		c-0.375,0-0.773,0.128-1.014,0.271l-0.211-0.728c0.256-0.144,0.758-0.331,1.428-0.331c1.223,0,1.605,0.721,1.605,1.584V16.757z
		 M51.248,15.908c-0.6,0-1.066,0.143-1.066,0.578c0,0.293,0.195,0.436,0.451,0.436c0.277,0,0.518-0.188,0.594-0.421
		c0.014-0.06,0.021-0.127,0.021-0.194V15.908z M51.998,12.388l-0.914,1.141h-0.781l0.645-1.141H51.998z"/>
	<path d="M54.811,12.65c0.354-0.061,0.848-0.105,1.547-0.105c0.705,0,1.215,0.136,1.553,0.413c0.324,0.248,0.533,0.668,0.533,1.164
		c0,0.503-0.156,0.923-0.457,1.201c-0.391,0.36-0.977,0.532-1.652,0.532c-0.15,0-0.285-0.007-0.391-0.029v1.816h-1.133V12.65z
		 M55.943,14.947c0.098,0.022,0.219,0.03,0.383,0.03c0.609,0,0.984-0.308,0.984-0.818c0-0.466-0.316-0.743-0.893-0.743
		c-0.234,0-0.391,0.015-0.475,0.037V14.947z"/>
	<path d="M62.055,16.757c0,0.346,0.014,0.683,0.059,0.886h-1.027l-0.068-0.368h-0.021c-0.24,0.293-0.617,0.451-1.051,0.451
		c-0.744,0-1.188-0.541-1.188-1.127c0-0.953,0.855-1.403,2.154-1.403V15.15c0-0.195-0.104-0.474-0.668-0.474
		c-0.375,0-0.773,0.128-1.014,0.271l-0.209-0.728c0.254-0.144,0.758-0.331,1.426-0.331c1.225,0,1.607,0.721,1.607,1.584V16.757z
		 M60.951,15.908c-0.602,0-1.066,0.143-1.066,0.578c0,0.293,0.195,0.436,0.449,0.436c0.279,0,0.52-0.188,0.594-0.421
		c0.016-0.06,0.023-0.127,0.023-0.194V15.908z"/>
	<path d="M62.969,15.181c0-0.541-0.008-0.894-0.031-1.209h0.977l0.045,0.683h0.029c0.188-0.54,0.631-0.766,0.992-0.766
		c0.105,0,0.156,0.008,0.24,0.022v1.074c-0.098-0.016-0.188-0.03-0.316-0.03c-0.42,0-0.705,0.218-0.779,0.578
		c-0.016,0.075-0.023,0.157-0.023,0.255v1.854h-1.141L62.969,15.181z"/>
	<path d="M69.318,12.312v4.234c0,0.42,0.016,0.848,0.031,1.096h-1.014l-0.045-0.533h-0.023c-0.225,0.405-0.676,0.616-1.148,0.616
		c-0.871,0-1.568-0.744-1.568-1.885c-0.008-1.231,0.766-1.952,1.643-1.952c0.459,0,0.805,0.165,0.969,0.413h0.016v-1.989H69.318z
		 M68.178,15.533c0-0.067,0-0.143-0.016-0.21c-0.066-0.309-0.314-0.556-0.668-0.556c-0.525,0-0.787,0.465-0.787,1.043
		c0,0.616,0.307,1.006,0.779,1.006c0.33,0,0.602-0.225,0.668-0.548c0.016-0.075,0.023-0.165,0.023-0.255V15.533z"/>
	<path d="M73.691,16.464c0,0.48,0.016,0.871,0.031,1.179H72.73l-0.053-0.518h-0.021c-0.143,0.225-0.488,0.601-1.148,0.601
		c-0.752,0-1.291-0.466-1.291-1.6v-2.154h1.141v1.975c0,0.532,0.172,0.855,0.578,0.855c0.314,0,0.502-0.218,0.57-0.397
		c0.029-0.068,0.045-0.15,0.045-0.248v-2.185h1.141V16.464z"/>
	<path d="M74.605,12.312h1.141v2.095h0.016c0.217-0.315,0.6-0.519,1.111-0.519c0.877,0,1.516,0.729,1.508,1.854
		c0,1.321-0.834,1.982-1.674,1.982c-0.428,0-0.848-0.158-1.104-0.594h-0.016l-0.045,0.511h-0.969
		c0.016-0.24,0.031-0.684,0.031-1.096V12.312z M75.746,16.081c0,0.075,0.008,0.143,0.023,0.203c0.074,0.3,0.336,0.54,0.668,0.54
		c0.486,0,0.787-0.375,0.787-1.036c0-0.57-0.254-1.021-0.787-1.021c-0.309,0-0.594,0.232-0.668,0.562
		c-0.016,0.067-0.023,0.136-0.023,0.21V16.081z"/>
	<path d="M79.656,13.491c-0.385,0-0.631-0.271-0.631-0.608c0-0.345,0.254-0.608,0.645-0.608s0.631,0.264,0.639,0.608
		c0,0.338-0.248,0.608-0.646,0.608H79.656z M79.092,17.643v-3.671h1.141v3.671H79.092z"/>
	<path d="M83.902,17.553c-0.201,0.098-0.584,0.173-1.02,0.173c-1.188,0-1.945-0.729-1.945-1.885c0-1.073,0.736-1.952,2.102-1.952
		c0.301,0,0.631,0.053,0.871,0.143l-0.18,0.849c-0.135-0.061-0.338-0.112-0.639-0.112c-0.6,0-0.99,0.428-0.982,1.028
		c0,0.676,0.449,1.036,1.006,1.036c0.27,0,0.48-0.045,0.652-0.12L83.902,17.553z"/>
	<path d="M85.326,16.164c0.039,0.48,0.504,0.705,1.037,0.705c0.391,0,0.705-0.053,1.014-0.157l0.15,0.773
		c-0.377,0.157-0.834,0.232-1.33,0.232c-1.246,0-1.959-0.721-1.959-1.877c0-0.931,0.586-1.959,1.855-1.959
		c1.186,0,1.635,0.923,1.635,1.831c0,0.195-0.021,0.368-0.037,0.458L85.326,16.164z M86.67,15.383c0-0.271-0.119-0.743-0.637-0.743
		c-0.488,0-0.684,0.443-0.713,0.743H86.67z"/>
</g>
</svg>
