<?xml version="1.0" encoding="utf-8"?>
<!-- Generator: Adobe Illustrator 16.0.0, SVG Export Plug-In . SVG Version: 6.00 Build 0)  -->
<!DOCTYPE svg PUBLIC "-//W3C//DTD SVG 1.1//EN" "http://www.w3.org/Graphics/SVG/1.1/DTD/svg11.dtd">
<svg version="1.1" id="Vrstva_1" xmlns="http://www.w3.org/2000/svg" xmlns:xlink="http://www.w3.org/1999/xlink" x="0px" y="0px"
	 width="35.021px" height="41px" viewBox="0 0 35.021 41" enable-background="new 0 0 35.021 41" xml:space="preserve">
<path fill="#FFFFFF" d="M33.931,9.48L24.484,0L0,24.516v9.48h9.415L33.931,9.48z M3.502,30.493v-4.528L24.484,4.952l4.51,4.528
	L7.965,30.493H3.502z M0,41h35.021v-3.502H0V41z"/>
</svg>
