<?xml version="1.0" encoding="utf-8"?>
<!-- Generator: Adobe Illustrator 16.0.0, SVG Export Plug-In . SVG Version: 6.00 Build 0)  -->
<!DOCTYPE svg PUBLIC "-//W3C//DTD SVG 1.1//EN" "http://www.w3.org/Graphics/SVG/1.1/DTD/svg11.dtd">
<svg version="1.1" id="Vrstva_1" xmlns="http://www.w3.org/2000/svg" xmlns:xlink="http://www.w3.org/1999/xlink" x="0px" y="0px"
	 width="55px" height="55px" viewBox="0 0 55 55" enable-background="new 0 0 55 55" xml:space="preserve">
<path fill="#B51352" d="M2.292,55h4.583V0H2.292V55z M36.667,13.75V4.583H11.458v4.584h20.625V27.5H11.458v4.583H27.5v9.167h25.208
	v-27.5H36.667z M48.125,36.667H32.083v-4.584h4.584v-13.75h11.458V36.667z"/>
</svg>
