<?xml version="1.0" encoding="utf-8"?>
<!-- Generator: Adobe Illustrator 16.0.0, SVG Export Plug-In . SVG Version: 6.00 Build 0)  -->
<!DOCTYPE svg PUBLIC "-//W3C//DTD SVG 1.1//EN" "http://www.w3.org/Graphics/SVG/1.1/DTD/svg11.dtd">
<svg version="1.1" id="Vrstva_1" xmlns="http://www.w3.org/2000/svg" xmlns:xlink="http://www.w3.org/1999/xlink" x="0px" y="0px"
	 width="55px" height="55px" viewBox="0 0 55 55" enable-background="new 0 0 55 55" xml:space="preserve">
<g>
	<path fill="#B51352" d="M23.246,31.047c0.09,0,0.174-0.009,0.264-0.016l2.276-3.181c-0.743,0.46-1.605,0.739-2.54,0.739
		c-2.668,0-4.84-2.171-4.84-4.839c0-2.67,2.172-4.841,4.84-4.841c2.668,0,4.837,2.17,4.837,4.841c0,0.363-0.048,0.714-0.124,1.057
		l2.268-3.175c-0.909-2.993-3.695-5.181-6.981-5.181c-4.025,0-7.298,3.277-7.298,7.3C15.948,27.772,19.221,31.047,23.246,31.047
		 M32.445,31.083l-1.84,2.573c0.37-0.09,0.749-0.149,1.148-0.149c2.666,0,4.839,2.164,4.839,4.836c0,2.667-2.173,4.838-4.839,4.838
		c-2.523,0-4.579-1.95-4.794-4.423l-1.847,2.587c1.146,2.528,3.691,4.296,6.641,4.296c4.024,0,7.297-3.277,7.297-7.298
		C39.051,34.552,36.145,31.429,32.445,31.083 M36.191,17.466L18.041,42.877l1.979,1.412L38.171,18.88L36.191,17.466z"/>
	<path fill="#B51352" d="M27.5,2.181l-25,20v30.637h50V22.181L27.5,2.181z M47.955,48.273H7.045V24.368L27.5,8l20.455,16.367V48.273
		z"/>
</g>
</svg>
