<?xml version="1.0" encoding="utf-8"?>
<!-- Generator: Adobe Illustrator 16.0.0, SVG Export Plug-In . SVG Version: 6.00 Build 0)  -->
<!DOCTYPE svg PUBLIC "-//W3C//DTD SVG 1.1//EN" "http://www.w3.org/Graphics/SVG/1.1/DTD/svg11.dtd">
<svg version="1.1" id="Vrstva_1" xmlns="http://www.w3.org/2000/svg" xmlns:xlink="http://www.w3.org/1999/xlink" x="0px" y="0px"
	 width="69px" height="69px" viewBox="0 0 69 69" enable-background="new 0 0 69 69" xml:space="preserve">
<path fill="#FFFFFF" d="M37.375,69h5.75V8.625h-5.75V69z M37.375,5.75h5.75V0h-5.75V5.75z M25.875,69h5.75V46h-5.75V69z
	 M25.875,43.105h5.75v-5.73h-5.75V43.105z M48.875,69h5.75V20.125h-5.75V69z M48.875,17.23h5.75V11.5h-5.75V17.23z M60.375,69h5.75
	V51.75h-5.75V69z M60.375,48.855h5.75v-5.73h-5.75V48.855z M14.375,69h5.75V25.875h-5.75V69z M14.375,22.989h5.75V17.25h-5.75
	V22.989z M2.875,68.98h5.75V40.25h-5.75V68.98z M2.875,37.375h5.75v-5.739h-5.75V37.375z"/>
</svg>
