<?xml version="1.0" encoding="utf-8"?>
<!-- Generator: Adobe Illustrator 16.0.0, SVG Export Plug-In . SVG Version: 6.00 Build 0)  -->
<!DOCTYPE svg PUBLIC "-//W3C//DTD SVG 1.1//EN" "http://www.w3.org/Graphics/SVG/1.1/DTD/svg11.dtd">
<svg version="1.1" id="Vrstva_1" xmlns="http://www.w3.org/2000/svg" xmlns:xlink="http://www.w3.org/1999/xlink" x="0px" y="0px"
	 width="55px" height="55px" viewBox="0 0 55 55" enable-background="new 0 0 55 55" xml:space="preserve">
<path fill="#B51352" d="M41.25,48.125h-27.5V16.042H9.167v32.083c0,2.526,1.974,4.583,4.498,4.583h27.5
	c2.528,0,4.668-2.057,4.668-4.583V16.042H41.25V48.125z M34.375,6.875V2.292h-13.75v4.583H4.583v4.583h45.834V6.875H34.375z
	 M20.625,43.542h4.583V20.625h-4.583V43.542z M29.792,43.542h4.583V20.625h-4.583V43.542z"/>
</svg>
