<?xml version="1.0" encoding="utf-8"?>
<!-- Generator: Adobe Illustrator 16.0.0, SVG Export Plug-In . SVG Version: 6.00 Build 0)  -->
<!DOCTYPE svg PUBLIC "-//W3C//DTD SVG 1.1//EN" "http://www.w3.org/Graphics/SVG/1.1/DTD/svg11.dtd">
<svg version="1.1" id="Vrstva_1" xmlns="http://www.w3.org/2000/svg" xmlns:xlink="http://www.w3.org/1999/xlink" x="0px" y="0px"
	 width="69px" height="69px" viewBox="0 0 69 69" enable-background="new 0 0 69 69" xml:space="preserve">
<path fill="#FFFFFF" d="M23,14.375c0-4.756,5.157-8.625,11.5-8.625S46,9.619,46,14.375V23h5.75v-8.625C51.75,6.449,44.013,0,34.5,0
	S17.25,6.449,17.25,14.375V23H23V14.375z M2.875,69h63.25V28.75H2.875V69z M60.375,63.25H8.625V34.5h51.75V63.25z M54.625,40.25
	h-40.25V46h40.25V40.25z M54.625,51.75h-40.25v5.75h40.25V51.75z"/>
</svg>
