<?xml version="1.0" encoding="utf-8"?>
<!-- Generator: Adobe Illustrator 16.0.0, SVG Export Plug-In . SVG Version: 6.00 Build 0)  -->
<!DOCTYPE svg PUBLIC "-//W3C//DTD SVG 1.1//EN" "http://www.w3.org/Graphics/SVG/1.1/DTD/svg11.dtd">
<svg version="1.1" id="Vrstva_1" xmlns="http://www.w3.org/2000/svg" xmlns:xlink="http://www.w3.org/1999/xlink" x="0px" y="0px"
	 width="55px" height="55px" viewBox="0 0 55 55" enable-background="new 0 0 55 55" xml:space="preserve">
<g>
	<g>
		<path fill="#B51352" d="M19.479,22.917H4.583V27.5h14.896c0.688,0,1.146,0.459,1.146,1.146V55h4.583V28.646
			C25.208,25.437,22.688,22.917,19.479,22.917 M35.521,22.917c-3.207,0-5.729,2.52-5.729,5.729V55h4.583V28.646
			c0-0.687,0.459-1.146,1.146-1.146h14.896v-4.583H35.521z"/>
		<path fill="#B51352" d="M36.667,9.167C36.667,4.125,32.542,0,27.5,0c-5.04,0-9.167,4.125-9.167,9.167s4.127,9.166,9.167,9.166
			C32.542,18.333,36.667,14.209,36.667,9.167 M27.5,13.75c-2.52,0-4.583-2.063-4.583-4.583c0-2.521,2.063-4.584,4.583-4.584
			c2.522,0,4.583,2.063,4.583,4.584C32.083,11.687,30.022,13.75,27.5,13.75"/>
	</g>
</g>
</svg>
