<?xml version="1.0" encoding="utf-8"?>
<!-- Generator: Adobe Illustrator 16.0.0, SVG Export Plug-In . SVG Version: 6.00 Build 0)  -->
<!DOCTYPE svg PUBLIC "-//W3C//DTD SVG 1.1//EN" "http://www.w3.org/Graphics/SVG/1.1/DTD/svg11.dtd">
<svg version="1.1" id="Vrstva_1" xmlns="http://www.w3.org/2000/svg" xmlns:xlink="http://www.w3.org/1999/xlink" x="0px" y="0px"
	 width="190px" height="66px" viewBox="0 0 190 66" enable-background="new 0 0 190 66" xml:space="preserve">
<g>
	<g>
		<path fill="#C5281C" d="M70.879,43.667l0.928-0.35l0.014-0.006c1.317-0.545,1.505-0.887,1.442-1.762v-3.541
			c1.002,2.545,1.95,4.334,3.894,4.334c0.265,0,0.545-0.033,0.85-0.102l0.759-0.172l-0.521-0.574
			c-0.333-0.367-0.495-0.652-0.682-0.982c-0.076-0.135-0.155-0.275-0.25-0.43c-0.455-0.736-1.537-0.988-2.413-0.594
			c-0.397-0.789-0.797-1.818-1.278-3.088l-0.106-0.242c-0.082-0.189-0.165-0.381-0.25-0.572v-0.031H73.25
			c-0.299-0.67-0.617-1.344-0.998-1.974c-0.345-0.573-0.697-1.067-1.075-1.511c-1.013-1.19-2.354-1.93-3.986-2.2
			c-1.128-0.186-1.927-0.226-2.938-0.274c-0.21-0.01-0.43-0.021-0.664-0.034c-0.457-0.024-1.403-0.103-2.317-0.179
			c-0.617-0.049-1.25-0.101-1.747-0.139c0.033-0.14,0.053-0.284,0.053-0.435c0-0.203-0.019-0.383-0.054-0.543h6.491
			c1.675,0,2.887-0.74,3.607-2.197c1.664-0.015,2.866-0.77,3.577-2.242h0.232c1.732,0,2.971-0.79,3.681-2.35l0.294-0.642h-22
			c-1.444,0-2.676,0.944-3.136,2.401l-0.014,0.052c-0.375-1.043-1.06-1.928-1.937-2.45c-1.222-0.726-2.608-0.97-3.713-0.651
			c-0.366,0.105-0.73,0.271-1.025,0.466c-0.253,0.167-0.609,0.436-0.868,0.766c-0.281,0.361-0.552,0.798-0.752,1.205
			c-0.126,0.105-0.225,0.211-0.293,0.314l-0.264,0.494l-0.014,0.028c-0.314,0.711-0.698,1.205-0.996,1.554
			c-0.298,0.346-0.312,0.673-0.272,0.888c0.044,0.234,0.17,0.426,0.305,0.571l-0.009,0.014c-0.087,0.151-0.133,0.324-0.133,0.499
			c0,0.581,0.505,1.02,1.126,1.02c0.452,0,0.819-0.21,1.212-0.469c0.158-0.105,0.578-0.385,0.717-0.399
			c0.173,0,0.332,0.158,0.332,0.332c0,0.476-0.613,0.731-1.053,0.764l-0.893,0.096c-0.644,0.06-0.949,0.4-0.949,0.706
			s0.147,0.478,0.25,0.58l0.066,0.068l0.227,0.201l-0.947,1.526c-0.676-0.626-1.466-1.005-2.168-1.026
			c-0.453-0.016-0.844,0.122-1.133,0.394c-0.083,0.08-0.156,0.17-0.218,0.27h-0.019c-0.75,0-1.351,0.4-1.646,0.851
			c-0.32,0.492-0.205,1.344,0.202,1.994L35,34.515v11.434h43.864v-2.281H70.879z M76.537,40.56c0.086,0.141,0.16,0.271,0.233,0.4
			c0.088,0.156,0.176,0.309,0.277,0.469c-0.688-0.043-1.21-0.424-1.692-1.146C75.8,40.128,76.339,40.237,76.537,40.56
			 M67.043,30.767c1.413,0.233,2.572,0.87,3.442,1.892c0.186,0.219,0.364,0.452,0.542,0.704c-2.38-0.312-3.208-0.659-4.539-2.679
			C66.666,30.707,66.849,30.734,67.043,30.767 M66.014,27.36h-4.463c0.382-0.336,0.702-0.768,0.961-1.287h6.067
			C68.009,26.946,67.182,27.36,66.014,27.36 M69.569,25.165h-4.465c0.395-0.347,0.724-0.793,0.986-1.337h6.073
			C71.594,24.736,70.758,25.165,69.569,25.165 M69.872,21.744h6.049c-0.567,0.8-1.374,1.177-2.49,1.177h-4.466
			C69.321,22.608,69.624,22.216,69.872,21.744 M45.43,21.979c0.143-0.183,0.375-0.385,0.653-0.568
			c0.216-0.144,0.499-0.271,0.775-0.351c0.438-0.126,0.942-0.135,1.463-0.034l-1.604,0.989c-0.199-0.021-0.395-0.031-0.584-0.031
			c-0.272,0-0.522,0.021-0.752,0.059C45.397,22.021,45.414,21.999,45.43,21.979 M43.557,29.062c0.013-0.062,0.063-0.112,0.117-0.111
			l0.782,0.025c0.952-0.033,1.923-0.426,2.032-1.418c0-0.673-0.477-1.326-1.15-1.326c-0.359,0-0.765,0.249-1.22,0.55
			c-0.296,0.197-0.53,0.352-0.709,0.352c-0.119,0-0.216-0.08-0.216-0.146c0-0.011,0.001-0.022,0.005-0.033l0.499-0.668l-0.432-0.29
			c-0.092-0.061-0.234-0.173-0.252-0.259c-0.006-0.039,0.052-0.111,0.069-0.132c0.179-0.209,0.385-0.463,0.592-0.776
			c0.126-0.179,0.201-0.276,0.415-0.276c0.211,0,0.383,0.169,0.383,0.377c0,0.137,0.151,0.246,0.339,0.246s0.271-0.134,0.387-0.246
			c0,0,0.446-0.409,0.21-0.603c-0.27-0.22-1.348,0.229-1.048-0.76l0.075-0.142c0.113-0.153,0.631-0.535,1.696-0.535
			c0.201,0,0.414,0.015,0.633,0.042l0.159,0.021l2.263-1.395c0.02,0.047,0.026,0.081,0.026,0.081l0.002,0.014
			c0.118,0.685-0.313,1.499-1.004,1.896l-0.275,0.157l0.178,1.021c-0.582,0.179-0.985,0.644-0.985,1.204
			c0,0.191,0.045,0.421,0.102,0.709c0.062,0.321,0.134,0.685,0.153,1.054c0,1.062-1.465,1.764-2.705,1.724l-0.03-0.001
			c-0.051-0.001-0.84-0.063-1.034-0.217C43.575,29.172,43.545,29.109,43.557,29.062 M37.95,32.395
			c0.18-0.273,0.588-0.509,1.101-0.42l0.387,0.067l0.121-0.373c0.034-0.101,0.078-0.175,0.138-0.232
			c0.109-0.103,0.271-0.151,0.479-0.146c0.548,0.018,1.232,0.398,1.789,0.996c0.202,0.217,0.382,0.468,0.542,0.723
			c0.03,0.054,0.066,0.111,0.099,0.162c0.045,0.071,0.083,0.129,0.09,0.143c0.02,0.035,0.295,0.448,0.275,0.475
			c0.188-0.263,0.377-0.527,0.564-0.791c0.006-0.008-0.003-0.032-0.019-0.066c-0.042-0.091-0.143-0.248-0.201-0.341l-0.042-0.067
			c-0.001-0.001-0.002-0.004-0.003-0.006c-0.007-0.009-0.031-0.049-0.063-0.1c-0.063-0.099-0.154-0.24-0.193-0.318l1.185-1.894
			c0.296,0.062,0.547,0.07,0.667,0.07h0.03c1.67,0,3.397-0.963,3.397-2.576v-0.039c-0.021-0.439-0.103-0.858-0.17-1.194
			c-0.043-0.222-0.084-0.432-0.084-0.536c0-0.177,0.249-0.373,0.604-0.373h0.539l-0.244-1.399c0.762-0.56,1.228-1.471,1.204-2.342
			c0.818,0.628,1.396,1.718,1.502,2.877c0.032,0.336-0.035,0.808-0.145,1.302l-0.057,0.207l0.009,0.003
			c-0.194,0.808-0.479,1.639-0.63,2.033l-0.14,0.363l0.34,0.192c0.608,0.346,0.983,0.598,0.983,1.4c0,0.921-0.827,1.626-1.629,1.775
			l-1.094,0.205l0.926,0.618c0.298,0.198,0.474,0.521,0.474,0.863c0,0.579-0.491,1.048-1.096,1.048h-0.349l-0.099,0.32
			c-0.34,1.107-0.709,1.648-1.897,1.766c0.056-0.338,0.094-0.66,0.094-1.119c0-0.107-0.009-0.408-0.014-0.506l-0.053-1.031
			l-0.726,0.736c-0.247,0.25-0.684,0.449-1.162,0.543v-0.898l-5.19-1.348l-1.848,0.479C37.932,33.234,37.849,32.553,37.95,32.395
			 M36.458,43.667l3.732-0.971l3.73,0.971H36.458z M44.47,42.872l-4.279-1.113l-4.281,1.113v-7.656l4.281-1.111l4.279,1.111V42.872z
			 M46.463,41.384c-0.387,0.557-0.435,1.322-0.144,2.283h-0.938v-7.332c0.336-0.053,0.697-0.148,1.035-0.303
			c-0.02,0.32-0.062,0.572-0.123,0.912c-0.013,0.078-0.027,0.16-0.044,0.246L46.16,37.72h0.538c0.804,0,1.403-0.125,1.864-0.363
			v3.062c0,0.078-0.061,0.141-0.135,0.141h-0.137C47.493,40.56,46.826,40.86,46.463,41.384 M56.325,41.581
			c-0.329,0.377-0.648,1.033-0.44,2.086h-5.56c0.597-0.059,1.031-0.199,1.33-0.51c0.364-0.379,0.396-0.896,0.385-1.266
			c0.012-0.033,0.071-0.158,0.345-0.281l0.479-0.217l-0.286-0.443c-0.477-0.729-0.27-2.326-0.085-3.191h0.043
			c1.885,0,3.104-0.391,4.391-0.805c0.335-0.109,0.682-0.219,1.047-0.326l0.01-0.004c0.009-0.002,0.385-0.121,0.896-0.24
			l1.812,2.986l0.017,0.025c0.181,0.258,0.203,0.426-0.126,0.811l-0.907,0.98l-1.489-0.277l-0.014-0.002
			C57.498,40.804,56.773,41.067,56.325,41.581 M56.814,43.667c-0.164-0.643-0.098-1.154,0.196-1.49
			c0.28-0.32,0.71-0.418,1.016-0.375l1.727,0.32l0.043,0.01h0.24l1.22-1.316l0.012-0.012c0.208-0.244,0.842-0.979,0.193-1.916
			l-1.629-2.686c0.27-0.039,0.541-0.062,0.791-0.062l0.012-0.002c0.009,0.002,0.826-0.01,1.701,0.498
			c0.118,0.256,0.283,0.59,0.467,0.963c0.343,0.693,0.769,1.557,0.888,1.906c0.038,0.109,0.153,0.441-0.257,0.865l-3.124,3.297
			H56.814L56.814,43.667z M67.465,43.667h-5.904l2.531-2.67c0.51-0.529,0.673-1.164,0.457-1.787
			c-0.122-0.359-0.456-1.049-0.804-1.756c1.005,0.467,2.527,0.887,5.626,1.137c0.373,0.031,0.472,0.158,0.546,0.498l0.136,1.336
			l-1.619,0.361c-0.543,0.107-0.969,0.465-1.17,0.982C67.043,42.337,67.118,43.009,67.465,43.667 M68.111,42.097
			c0.09-0.23,0.263-0.375,0.502-0.42l2.425-0.541l-0.219-2.164l-0.008-0.045c-0.06-0.285-0.24-1.148-1.366-1.24
			c-4.335-0.35-5.342-0.992-6.395-1.672c-0.002-0.004-0.003-0.008-0.004-0.012l-0.007,0.004l-0.068-0.045
			c-1.125-0.727-2.244-0.732-2.354-0.73c-1.228,0-2.781,0.486-2.907,0.527c-0.375,0.109-0.726,0.223-1.065,0.332
			c-1.357,0.436-2.53,0.814-4.499,0.756l-0.359-0.01l-0.093,0.348c-0.071,0.266-0.622,2.443-0.091,3.842
			c-0.477,0.377-0.477,0.811-0.474,0.869c0.021,0.479-0.094,0.598-0.13,0.635c-0.229,0.236-0.983,0.268-1.619,0.268h-0.008h-0.231
			l-0.137,0.188c-0.392,0.539-1.239,0.666-1.78,0.527c-0.239-0.725-0.245-1.279-0.015-1.609c0.271-0.393,0.847-0.434,1.081-0.434
			h0.137c0.575,0,1.044-0.473,1.044-1.051v-3.898c0.176-0.271,0.316-0.584,0.439-0.936c0.95-0.15,1.68-0.957,1.68-1.929
			c0-0.372-0.11-0.732-0.308-1.04c0.879-0.423,1.631-1.288,1.631-2.422c0-1.133-0.57-1.653-1.113-1.993
			c0.154-0.436,0.406-1.201,0.577-1.972l0.761-2.726c0.34-1.069,1.229-1.76,2.267-1.76h13.406c-0.567,0.799-1.373,1.177-2.49,1.177
			h-8.112l-0.424,0.907h7.271c-0.571,0.908-1.407,1.337-2.596,1.337h-5.271l-0.424,0.908h4.704
			c-0.571,0.874-1.396,1.287-2.563,1.287h-2.873l-0.424,0.908h3.012c0.027,0.037,0.104,0.174,0.104,0.542
			c0,0.583-0.49,1.058-1.093,1.058c-0.207,0-0.384-0.048-0.693-0.175c-0.134-0.057-0.267-0.112-0.399-0.169l-0.699,0.627
			c0.131,0.056,0.261,0.112,0.393,0.167v0.001c0.605,0.262,0.942,0.398,1.399,0.398c0.555,0,1.055-0.23,1.41-0.596
			c0.516,0.032,1.349,0.102,2.154,0.167c0.965,0.079,1.874,0.154,2.345,0.18c0.236,0.012,0.456,0.023,0.668,0.033
			c0.399,0.021,0.765,0.038,1.131,0.064c1.828,2.971,2.768,3.361,6.311,3.786c0.256,0.459,0.484,0.941,0.705,1.428v5.785
			l0.001,0.033c0.021,0.268,0.021,0.357-0.016,0.404c-0.124,0.162-0.671,0.391-0.861,0.469l-2.986,1.127
			C68.096,43.062,67.954,42.501,68.111,42.097"/>
		<polygon fill="#C5281C" points="43.522,36.392 40.661,35.649 40.661,36.587 43.522,37.329 		"/>
		<polygon fill="#C5281C" points="36.857,37.329 39.719,36.587 39.719,35.649 36.857,36.392 		"/>
		<polygon fill="#C5281C" points="36.857,39.214 39.719,38.472 39.719,37.534 36.857,38.274 		"/>
		<polygon fill="#C5281C" points="43.522,38.274 40.661,37.534 40.661,38.472 43.522,39.214 		"/>
		<polygon fill="#C5281C" points="43.522,40.161 40.661,39.417 40.661,40.356 43.522,41.099 		"/>
		<polygon fill="#C5281C" points="36.857,41.099 39.719,40.356 39.719,39.417 36.857,40.161 		"/>
	</g>
	<g>
		<g>
			<polygon fill="#C32A24" points="85.138,44.663 86.142,44.663 86.142,45.046 82.913,45.046 82.913,44.663 83.951,44.663 
				83.951,37.528 82.913,37.528 82.913,37.146 86.142,37.146 86.142,37.528 85.138,37.528 			"/>
			<path fill="#C32A24" d="M112.051,37.585l0.656-0.494v2.316h-0.22c0-0.256-0.019-0.475-0.073-0.674
				c-0.055-0.201-0.128-0.365-0.219-0.494c-0.092-0.145-0.183-0.254-0.311-0.346c-0.11-0.092-0.237-0.184-0.347-0.256
				c-0.274-0.146-0.584-0.238-0.949-0.256c-0.401,0-0.729,0.074-0.948,0.221c-0.22,0.145-0.384,0.309-0.493,0.473
				c-0.127,0.201-0.201,0.439-0.219,0.693c0,0.219,0.054,0.383,0.164,0.529c0.108,0.146,0.237,0.256,0.365,0.348
				c0.146,0.109,0.329,0.182,0.512,0.256l1.495,0.383c0.438,0.109,0.784,0.273,1.022,0.475c0.256,0.219,0.438,0.438,0.548,0.656
				c0.128,0.219,0.199,0.439,0.219,0.621c0.019,0.184,0.037,0.328,0.037,0.402v0.055c0,0.42-0.057,0.783-0.164,1.094
				c-0.109,0.293-0.256,0.547-0.42,0.748c-0.165,0.201-0.365,0.346-0.566,0.475c-0.201,0.109-0.402,0.201-0.603,0.256
				c-0.183,0.055-0.364,0.092-0.511,0.109c-0.146,0.02-0.257,0.02-0.312,0.02l0,0c-0.2,0-0.401-0.037-0.602-0.074
				c-0.164-0.037-0.365-0.109-0.584-0.201c-0.22-0.092-0.402-0.219-0.585-0.383l-0.783,0.564v-2.955h0.219
				c0.018,0.492,0.128,1.15,0.292,1.496c0.073,0.146,0.164,0.293,0.273,0.438c0.11,0.146,0.255,0.275,0.401,0.385
				c0.165,0.109,0.348,0.201,0.566,0.273c0.219,0.074,0.475,0.109,0.766,0.109h0.036c0.037,0,0.128,0,0.238-0.018
				c0.109,0,0.238-0.037,0.384-0.055c0.145-0.037,0.292-0.092,0.438-0.146c0.165-0.072,0.293-0.164,0.421-0.273
				c0.127-0.109,0.237-0.275,0.311-0.457c0.091-0.182,0.126-0.4,0.126-0.656v-0.02c0-0.035,0-0.127-0.018-0.254
				c-0.018-0.129-0.055-0.275-0.146-0.42c-0.073-0.164-0.201-0.311-0.347-0.457c-0.146-0.146-0.384-0.256-0.658-0.328l-1.659-0.383
				c-0.274-0.074-0.529-0.201-0.748-0.365c-0.183-0.146-0.364-0.33-0.511-0.584c-0.164-0.238-0.237-0.566-0.237-0.949
				s0.073-0.729,0.219-1.039c0.146-0.293,0.329-0.549,0.548-0.748c0.219-0.201,0.475-0.348,0.729-0.457
				c0.274-0.109,0.529-0.146,0.784-0.146c0.183,0,0.347,0.02,0.53,0.055c0.146,0.037,0.31,0.092,0.474,0.146
				C111.776,37.364,111.922,37.456,112.051,37.585"/>
			<path fill="#C32A24" d="M153.759,37.585l0.656-0.494v2.316h-0.219c0-0.256-0.036-0.475-0.073-0.674
				c-0.057-0.201-0.128-0.365-0.22-0.494c-0.091-0.145-0.183-0.254-0.311-0.346c-0.108-0.092-0.237-0.184-0.347-0.256
				c-0.273-0.146-0.584-0.238-0.948-0.256c-0.402,0-0.711,0.074-0.948,0.221c-0.219,0.145-0.385,0.309-0.494,0.473
				c-0.127,0.201-0.2,0.439-0.218,0.693c0,0.219,0.055,0.383,0.163,0.529c0.11,0.146,0.237,0.256,0.366,0.348
				c0.146,0.109,0.328,0.182,0.512,0.256l1.496,0.383c0.438,0.109,0.783,0.273,1.021,0.475c0.255,0.219,0.438,0.438,0.548,0.656
				c0.127,0.219,0.2,0.439,0.219,0.621c0.019,0.184,0.037,0.328,0.037,0.402v0.055c0,0.42-0.056,0.783-0.164,1.094
				c-0.11,0.293-0.256,0.547-0.421,0.748c-0.164,0.201-0.366,0.346-0.566,0.475c-0.201,0.109-0.401,0.201-0.603,0.256
				c-0.183,0.055-0.365,0.092-0.512,0.109c-0.145,0.02-0.255,0.02-0.31,0.02h-0.037c-0.199,0-0.401-0.037-0.602-0.074
				c-0.165-0.037-0.365-0.109-0.566-0.201c-0.219-0.092-0.402-0.219-0.585-0.383l-0.785,0.564v-2.955h0.221
				c0.019,0.492,0.128,1.15,0.292,1.496c0.073,0.146,0.164,0.293,0.274,0.438c0.109,0.146,0.255,0.275,0.42,0.385
				c0.164,0.109,0.347,0.201,0.565,0.273c0.219,0.074,0.475,0.109,0.766,0.109h0.037c0.036,0,0.128,0,0.237-0.018
				c0.109,0,0.236-0.037,0.384-0.055c0.146-0.037,0.292-0.092,0.438-0.146c0.163-0.072,0.292-0.164,0.419-0.273
				c0.128-0.109,0.238-0.275,0.311-0.457c0.073-0.182,0.128-0.4,0.128-0.656v-0.02c0-0.035,0-0.127-0.019-0.254
				c-0.018-0.129-0.055-0.275-0.146-0.42c-0.072-0.164-0.201-0.311-0.347-0.457c-0.146-0.146-0.366-0.256-0.656-0.328l-1.661-0.383
				c-0.274-0.074-0.531-0.201-0.748-0.365c-0.183-0.146-0.364-0.33-0.51-0.584c-0.165-0.238-0.238-0.566-0.238-0.949
				s0.073-0.729,0.219-1.039c0.146-0.293,0.329-0.549,0.549-0.748c0.219-0.201,0.475-0.348,0.729-0.457
				c0.274-0.109,0.529-0.146,0.784-0.146c0.183,0,0.365,0.02,0.529,0.055c0.146,0.037,0.311,0.092,0.476,0.146
				C153.484,37.364,153.631,37.456,153.759,37.585"/>
			<path fill="#C32A24" d="M119.658,37.165v2.791h-0.22c0-0.602-0.055-1.076-0.2-1.404c-0.128-0.33-0.274-0.566-0.42-0.73
				c-0.184-0.182-0.385-0.273-0.603-0.311h-0.856v7.17h0.984v0.383h-3.247v-0.383h0.984v-7.17h-1.039
				c-0.237,0.018-0.438,0.129-0.621,0.311c-0.164,0.145-0.311,0.383-0.438,0.729c-0.127,0.33-0.199,0.803-0.199,1.406h-0.165v-2.773
				L119.658,37.165L119.658,37.165z"/>
			<path fill="#C32A24" d="M149.38,37.146v2.773h-0.219c0-0.602-0.055-1.076-0.183-1.404c-0.129-0.33-0.274-0.566-0.42-0.73
				c-0.182-0.182-0.384-0.273-0.603-0.311h-0.876v7.172h0.985v0.383h-3.247v-0.383h0.984v-7.172h-1.039
				c-0.237,0.02-0.438,0.129-0.639,0.311c-0.164,0.146-0.311,0.385-0.438,0.73c-0.128,0.328-0.201,0.803-0.201,1.404h-0.164v-2.773
				H149.38z"/>
			<path fill="#C32A24" d="M127.904,44.681h0.985v0.365h-3.21v-0.365h1.04v-6.695l-2.519,7.061h-0.383l-2.189-7.115v6.295
				c0.019,0.09,0.055,0.182,0.127,0.236c0.055,0.055,0.147,0.109,0.22,0.127c0.091,0.037,0.164,0.057,0.255,0.057
				c0.093,0,0.147,0.018,0.202,0.018h0.072v0.383h-2.134v-0.383h0.073c0.036,0,0.109,0,0.183-0.018c0.072,0,0.164-0.02,0.237-0.057
				c0.072-0.035,0.164-0.072,0.237-0.127s0.128-0.146,0.164-0.236v-6.295c0-0.092-0.055-0.164-0.146-0.201
				c-0.092-0.055-0.184-0.092-0.312-0.109c-0.109-0.018-0.218-0.037-0.328-0.055c-0.109,0-0.2-0.018-0.274-0.018h-0.091v-0.385
				h2.518l1.861,6.076l2.135-6.076h2.299v0.385h-0.985v7.133H127.904L127.904,44.681z"/>
			<path fill="#C32A24" d="M103.803,40.776v-3.248c2.025,0,2.773-0.109,3.139,2.391h0.219v-2.773h-5.546v0.383h0.967v7.135h-1.059
				v0.365h5.711v-2.883h-0.293c-0.292,2.207-0.839,2.535-2.409,2.535h-0.729v-3.465h0.42c0.711,0.018,1.113,0.418,1.241,1.643h0.255
				v-3.596h-0.255c0,0.02-0.055,1.551-1.277,1.516L103.803,40.776L103.803,40.776z"/>
			<path fill="#C32A24" d="M131.608,40.776v-3.248c2.024,0,2.772-0.109,3.139,2.391h0.218v-2.773h-5.547v0.383h0.969v7.135h-1.06
				v0.365h5.711v-2.883h-0.292c-0.293,2.207-0.839,2.535-2.408,2.535h-0.729v-3.465h0.42c0.711,0.018,1.112,0.418,1.24,1.643h0.256
				v-3.596h-0.256c0,0.02-0.054,1.551-1.277,1.516L131.608,40.776L131.608,40.776z"/>
			<path fill="#C32A24" d="M142.83,37.548v-0.383h-2.701v0.383h0.22c0.291,0,0.949,0.018,1.003,0.619v4.525l-3.758-5.527h-2.062
				v0.383h0.348c0.401,0,0.966,0.018,1.002,0.619v5.803c0,0.566-0.837,0.785-1.203,0.785l0,0v0.291h2.773v-0.291
				c-0.347,0-1.204-0.221-1.204-0.785l0.019-5.109c1.497,2.135,4.307,6.186,4.324,6.186h0.146v-6.879
				c0.036-0.584,0.711-0.619,1.003-0.619H142.83L142.83,37.548z"/>
			<path fill="#C32A24" d="M93.896,37.528v-0.383h-2.718v0.383h0.219c0.292,0,0.967,0.02,1.002,0.621l0,0v4.543l-3.775-5.547h-2.044
				v0.383h0.347c0.402,0,0.968,0.02,1.004,0.621v5.82c0,0.566-0.857,0.785-1.204,0.785l0,0v0.291h2.773v-0.291
				c-0.347,0-1.204-0.221-1.204-0.785l0.019-5.127c1.496,2.135,4.307,6.203,4.343,6.203h0.145v-6.896
				c0.038-0.602,0.713-0.621,1.005-0.621H93.896L93.896,37.528z"/>
			<polygon fill="#C32A24" points="98.913,37.146 98.913,37.292 98.913,37.528 98.913,37.528 99.881,37.528 98.294,43.075 
				96.523,37.528 97.563,37.528 97.563,37.528 97.563,37.292 97.563,37.146 94.298,37.146 94.298,37.528 94.553,37.528 
				94.553,37.528 95.301,37.528 97.673,45.063 97.946,45.063 100.154,37.528 101.176,37.528 101.176,37.528 101.176,37.292 
				101.176,37.146 			"/>
		</g>
		<g>
			<path fill="#C32A24" d="M96.597,26.69v-4.963c3.103,0,4.251-0.163,4.798,3.649h0.329v-4.251h-8.466v0.584h1.459v10.947h-1.624
				v0.584h8.722v-4.47h-0.438c-0.438,3.375-1.295,3.886-3.686,3.886h-1.112v-5.31h0.638c1.077,0.019,1.697,0.657,1.916,2.5h0.401
				v-5.492c0,0.019-0.383,0-0.383,0c0,0.036-0.073,2.354-1.952,2.317L96.597,26.69L96.597,26.69z"/>
			<path fill="#C32A24" d="M93.147,26.91h-4.78v0.548h1.644v3.922c-0.274,1.004-1.752,1.424-2.189,1.424
				c-3.048,0-2.828-4.47-2.828-5.656c0-1.095-0.109-5.655,2.828-5.655c2.08,0,3.156,2.062,3.594,3.923h0.329
				c0-0.766,0.018-4.397,0-4.397c0-0.036-1.424,1.022-1.424,1.004c0.037-0.019-0.656-0.985-2.518-0.985
				c-3.595,0-4.927,3.595-4.908,6.094c0.019,2.299,1.077,6.203,4.908,6.203c1.204,0,2.062-0.62,2.518-1.313
				c0-0.018,1.515,1.204,1.533,1.204v-5.765h1.295L93.147,26.91L93.147,26.91z"/>
			<path fill="#C32A24" d="M134.893,28.862l1.734-5.219l1.861,5.219H134.893z M128.124,26.782h-1.951v-5.055h2.499
				c1.478,0.22,1.533,1.916,1.533,2.463C130.204,25.505,129.657,26.782,128.124,26.782 M148.979,28.771
				c-0.438,3.374-1.297,3.886-3.686,3.886h-0.146V21.746h1.532v-0.584h-5.019v0.585h1.534v10.91h-1.205l-4.451-11.842h-0.658
				c0.02,0-3.703,10.729-3.703,10.765c0-0.036-0.272,0.931-0.893,1.04c-0.566,0.018-0.53-0.274-0.53-0.365v-2.062
				c0-0.548-0.036-1.771-0.602-2.336c-0.64-0.638-1.716-0.692-1.697-0.71c0,0,2.736-0.566,2.736-3.175
				c0-1.825-1.276-2.737-3.393-2.811h-6.021v0.585h1.552v10.91h-1.552v0.584h4.908v-0.584h-1.532v-5.255h2.061
				c3.576,0.293-0.62,5.838,4.068,5.82h2.957v-0.585c-0.165,0-1.241,0.037-1.314-0.711c-0.036-0.547,0.712-2.5,0.712-2.5h4.013
				c0,0,1.242,3.211,1.261,3.211h-1.405v0.585h10.928v-4.47L148.979,28.771L148.979,28.771z"/>
			<path fill="#C32A24" d="M116.812,21.728c3.103,0,4.251-0.146,4.798,3.668h0.329v-4.252h-12.353v0.584h0.329
				c0.438,0,1.479,0.036,1.533,0.949v6.969l-5.785-8.483h-3.156v0.585h0.53c0.62,0,1.496,0.036,1.533,0.948v8.922
				c0,0.875-1.314,1.204-1.844,1.204l0,0v0.438h4.252v-0.438c-0.548,0-1.861-0.329-1.861-1.204l0.017-7.864
				c2.282,3.266,6.606,9.487,6.643,9.487h0.219V22.677c0.056-0.913,1.095-0.949,1.533-0.949h1.422v10.929h-1.623v0.584h8.721v-4.469
				h-0.438c-0.438,3.374-1.297,3.886-3.686,3.886h-1.112v-5.31h0.638c1.077,0.019,1.697,0.656,1.916,2.499h0.402v-5.491
				c0,0.018-0.385,0-0.385,0c0,0.036-0.071,2.354-1.951,2.316h-0.602L116.812,21.728L116.812,21.728z"/>
			<polygon fill="#C32A24" points="154.908,21.728 154.908,21.145 149.981,21.145 149.981,21.728 151.531,21.728 151.531,32.639 
				149.981,32.639 149.981,33.223 154.908,33.223 154.908,32.639 153.357,32.639 153.357,21.728 			"/>
		</g>
	</g>
</g>
</svg>
