<?xml version="1.0" encoding="utf-8"?>
<!-- Generator: Adobe Illustrator 16.0.0, SVG Export Plug-In . SVG Version: 6.00 Build 0)  -->
<!DOCTYPE svg PUBLIC "-//W3C//DTD SVG 1.1//EN" "http://www.w3.org/Graphics/SVG/1.1/DTD/svg11.dtd">
<svg version="1.1" id="Vrstva_1" xmlns="http://www.w3.org/2000/svg" xmlns:xlink="http://www.w3.org/1999/xlink" x="0px" y="0px"
	 width="190px" height="66px" viewBox="0 0 190 66" enable-background="new 0 0 190 66" xml:space="preserve">
<g>
	<g>
		<defs>
			<path id="SVGID_11_" d="M142.671,41.025c-0.347,1.821-0.419,3.974-0.544,5.816c-0.05,1.12,1.65,1.348,1.788,0.157
				c0.09-0.647,0.805-3.137,1.472-4.188l0.02,0.071c0.297,1.454,0.491,2.892,1.104,4.238c0.472,1.069,2.119,0.351,1.646-0.684
				c-0.492-1.121-0.685-2.277-0.913-3.447c-0.19-0.86-0.402-2.315-1.629-2.315c-0.472,0-0.839,0.386-1.173,0.823
				c0.03-0.737-0.488-1.139-0.977-1.139C143.107,40.359,142.768,40.571,142.671,41.025z M107.954,41.305
				c0.141,1.488,0.454,3.731,0.454,5.238c0,1.558-0.804,4.117-2.207,4.117c-0.017,0-0.033,0-0.033,0.018c0,0.017,0,0.017-0.02,0
				c-0.018-0.052-0.018-0.123-0.018-0.229v-0.225c0-0.632-0.455-0.931-0.889-0.931c-0.44,0-0.895,0.299-0.895,0.931
				c0,0.717,0.103,2.275,1.854,2.275c2.928,0,3.997-3.922,3.997-5.956c0-1.578-0.334-3.871-0.474-5.413
				c-0.04-0.565-0.453-0.83-0.869-0.83C108.372,40.3,107.88,40.653,107.954,41.305z M102.299,43.916l0.087-0.543
				c0.209-0.055,0.367-0.158,0.454-0.246c0.072-0.07,0.09-0.052,0.265-0.438c0.351-0.229,0.962-0.648,1.472-0.632
				c0.437,0.02,0.526,0.525,0.473,0.945c-0.195,1.228-0.964,2.856-1.997,2.856C102.562,45.859,102.211,44.949,102.299,43.916z
				 M103.052,40.851c-0.284,0-0.791,0.068-1.226,0.315c-0.721,0.454-1.193,1.417-1.298,2.399c-0.017,0.176-0.034,0.351-0.034,0.612
				c0,1.647,0.822,3.504,2.575,3.504c1.979,0.037,3.643-2.819,3.838-4.764c0.103-1.227-0.477-2.683-2-2.683
				C104.399,40.235,103.771,40.465,103.052,40.851z M130.092,43.916l0.086-0.543c0.211-0.055,0.368-0.158,0.458-0.246
				c0.07-0.07,0.086-0.052,0.261-0.438c0.351-0.229,0.962-0.648,1.473-0.632c0.437,0.02,0.526,0.525,0.474,0.945
				c-0.192,1.228-0.965,2.856-1.997,2.856C130.354,45.859,130.002,44.949,130.092,43.916z M130.846,40.851
				c-0.282,0-0.79,0.068-1.228,0.315c-0.718,0.454-1.189,1.417-1.297,2.399c-0.019,0.176-0.034,0.351-0.034,0.612
				c0,1.647,0.821,3.504,2.573,3.504c1.982,0.037,3.646-2.819,3.838-4.764c0.105-1.227-0.473-2.683-2-2.683
				C132.193,40.235,131.562,40.465,130.846,40.851z M115.054,43.075c0,1.56,1.873,1.924,3.066,2.259
				c0.191,0.051,0.945,0.191,0.945,0.405c0,0.645-1.875,1.188-2.384,1.275c-0.085-0.033-0.137-0.052-0.157-0.052
				c-0.668-0.169-1.015,0.359-1.015,0.892c-0.009,0.568,0.378,1.134,1.172,0.844c1.28-0.245,4.171-1.105,4.171-3.083
				c0-1.578-2.399-1.856-3.521-2.279c-0.405-0.139-0.525-0.261-0.525-0.385c0-0.262,0.895-1.035,2.064-1.035
				c0.37,0.333,0.984,0.055,1.177-0.278c0.121-0.21,0.121-0.458,0.104-0.666c-0.021-0.516-0.531-0.75-1.22-0.75
				C117.423,40.222,115.054,41.341,115.054,43.075z M112.773,40.185c-0.891,0.051-0.842,1.715-0.842,2.26
				c-0.049,1.349-0.139,2.418-0.157,3.171c-0.016,0.894,0.123,1.487,0.335,1.698c0.419,0.455,1.895,0.227,1.472-1.069
				c-0.142-0.403-0.192-0.542-0.175-0.962c0.051-0.647,0.333-3.435,0.386-3.892c0.05-0.669-0.411-1.208-0.944-1.208
				C112.825,40.183,112.8,40.183,112.773,40.185z M150.551,45.246c0-1.259,0.454-2.399,1.331-3.293
				c0.157-0.158,0.313-0.248,0.384-0.282c0.034,0,0.07,0,0.14,0.021c0.089,0,0.229,0.014,0.301,0.014h0.173l-0.053,0.353
				c-0.051,0.387-0.104,0.841-0.227,1.243c-0.648,1.981-1.824,2.524-1.945,2.524C150.599,45.825,150.551,45.579,150.551,45.246z
				 M149.131,43.476c-0.213,0.634-0.333,1.242-0.333,2.174c0,0.877,0.349,2.189,1.558,2.189c0.684,0,1.613-0.633,2.42-1.577
				c0.226,0.982,0.594,1.928,1.295,1.928c0.402,0,0.93-0.157,0.93-0.788c0-0.141-0.035-0.353-0.175-0.577
				c-0.338-0.508-0.544-1.42-0.544-2.522c0-0.281,0-0.439,0.018-0.72c0.017-0.298,0.089-0.579,0.174-0.893
				c0.105-0.405,0.194-0.805,0.194-1.228c0-0.632-0.352-0.841-0.771-0.841c-0.157,0-0.298,0.019-0.402,0.053
				c-0.124-0.387-0.649-0.861-1.193-0.861C150.812,39.812,149.478,42.479,149.131,43.476z M140.604,39.709l-0.037,0.037
				c-0.962,1.226-2.033,3.136-2.715,4.853c-0.282-1.017-0.719-2.067-1.016-3.137c-0.247-0.332-0.595-0.508-0.876-0.508
				c-0.44,0-0.86,0.282-0.86,0.945l0.545,1.576c0.437,1.194,0.84,2.436,1.084,3.56c0.158,0.715,0.599,1.031,1.07,1.031
				c0.667,0,1.103-0.28,1.175-0.929c0.295-2.049,1.818-4.854,3.083-6.464c0.121-0.174,0.155-0.315,0.155-0.489
				c0-0.493-0.418-0.736-0.874-0.736C141.075,39.448,140.793,39.518,140.604,39.709z M112.967,37.083
				c-0.543,0.087-0.754,0.419-0.701,1.049c0.053,0.704,0.542,1.052,0.965,1.052c0.544,0,0.822-0.544,0.806-1.087
				c0-0.533-0.316-1.023-0.918-1.023C113.069,37.073,113.02,37.077,112.967,37.083z M108.287,36.905
				c-0.611,0.089-0.841,0.404-0.787,1.088c0.069,0.754,0.612,1.069,1.088,1.069c0.629,0,0.962-0.596,0.909-1.155
				c-0.05-0.537-0.397-1.009-1.042-1.009C108.402,36.898,108.344,36.902,108.287,36.905z M115.86,37.202
				c0,0.18,0.069,0.353,0.192,0.493c0.472,0.544,1.787,1.804,2.207,1.804c0.265,0,0.492-0.104,0.665-0.243
				c0.613-0.578,1.789-1.63,1.789-2.102c0-0.598-0.58-0.686-0.823-0.686c-0.544,0-1.087,0.771-1.613,1.227h-0.018
				c-0.122,0-0.841-1.015-0.858-1.032c-0.141-0.158-0.368-0.264-0.613-0.264C116.333,36.399,115.86,36.768,115.86,37.202z
				 M124.901,36.748c-0.439,1.105-0.788,2.244-1.034,3.347c-0.507,0.158-0.719,0.248-1.068,0.333
				c-0.087,0.018-0.77,0.193-0.77,0.212c-0.544,0.121-0.807,0.42-0.807,0.769c0,0.439,0.385,0.841,1.015,0.807h0.035
				c0.474-0.069,0.842-0.123,1.296-0.262c-0.104,0.929-0.155,1.874-0.155,2.837c0,0.807,0.036,1.629,0.104,2.416
				c0.176,0.44,0.562,0.67,0.911,0.67c0.388,0,0.774-0.247,0.877-0.756c-0.07-0.736-0.103-1.489-0.103-2.278
				c0-1.118,0.085-2.277,0.261-3.451c0.474-0.139,0.962-0.261,1.592-0.4c0.157-0.019,0.336-0.054,0.477-0.14
				c0.104-0.021,0.12-0.072,0.173-0.125c0.581-0.753-0.035-1.277-0.664-1.347c-0.334,0-0.806,0.069-1.212,0.155
				c0.194-0.77,0.476-1.559,0.807-2.38c0.092-0.649-0.385-1-0.874-1C125.445,36.154,125.06,36.416,124.901,36.748z M96.131,38.467
				c0.087-0.335,0.211-0.613,0.367-1.036c0.614-0.086,1.034-0.121,1.525-0.121h0.632c0.297,0,0.575,0.035,0.874,0.09
				c0.421,0.051,0.825,0.086,0.753,0.367c-0.227,0.823-2.259,1.785-4.535,2.576C95.867,39.518,96.009,38.904,96.131,38.467z
				 M92.837,37.049c-1.034,0.84,0.089,2.171,1.121,1.33c0.124-0.089,0.211-0.175,0.368-0.265c-0.297,0.931-0.438,1.928-0.578,2.857
				l-0.228,0.072c-0.508,0.156-0.788,0.594-0.788,0.997s0.264,0.77,0.823,0.77c-0.088,1.315-0.141,4.049,0.176,5.344
				c0.334,1.385,1.854,0.651,2.051-0.351c0.067-0.278-0.09-0.437-0.212-0.647c-0.299-0.579-0.087-4.081-0.087-4.853
				c2.608-0.787,5.99-2.033,6.641-4.311c0.365-1.245-0.315-1.91-1.19-2.189c-0.844-0.265-1.756-0.265-2.646-0.265
				C96.674,35.539,94.589,35.611,92.837,37.049z M127.459,34.47c-0.787,0.878,0.107,1.246,0.245,1.771
				c0.033,0.138,0,0.354-0.104,0.492c-0.054,0.122-0.456,0.49-0.388,1.033c0.054,0.262,0.09,0.279,0.282,0.438
				c0.264,0.192,0.597,0.121,0.894-0.158c0.351-0.314,0.859-1.087,0.859-1.753c0-0.701-0.053-1.278-0.334-1.716
				c-0.167-0.245-0.463-0.344-0.753-0.344S127.592,34.332,127.459,34.47z"/>
		</defs>
		<clipPath id="SVGID_2_">
			<use xlink:href="#SVGID_11_"  overflow="visible"/>
		</clipPath>
		<linearGradient id="SVGID_4_" gradientUnits="userSpaceOnUse" x1="93.042" y1="43.3662" x2="155.0001" y2="43.3662">
			<stop  offset="0" style="stop-color:#009FE3"/>
			<stop  offset="0.41" style="stop-color:#0068A1"/>
			<stop  offset="1" style="stop-color:#003865"/>
		</linearGradient>
		<rect x="91.803" y="34.233" clip-path="url(#SVGID_2_)" fill="url(#SVGID_4_)" width="63.197" height="18.266"/>
	</g>
	<path fill="#009FE3" d="M58.666,29.315c4.369,0,7.911-3.541,7.911-7.904c0-4.367-3.542-7.91-7.911-7.91
		c-4.363,0-7.905,3.543-7.905,7.91C50.761,25.774,54.303,29.315,58.666,29.315"/>
	<path fill="#009FE3" d="M64.501,27.81c-1.505,1.633-4.164,3.266-7.57,3.266c-2.646,0-4.926-1.029-6.37-2.17
		c-8.639,0.908-15.055,2.189-15.055,2.189v3.495l45.753-0.005l0.003-7.209C81.262,27.376,73.457,27.329,64.501,27.81"/>
	<path fill="#003865" d="M45.618,41.667c0,2.989,2.453,3.508,4.251,3.882c0.965,0.202,1.728,0.366,1.728,0.824
		c0,0.477-0.929,0.651-1.799,0.651c-1.322,0-2.722-0.283-3.849-0.763l-0.218-0.092v3.396l0.125,0.031
		c1.644,0.389,3.059,0.556,4.723,0.556c1.712,0,5.693-0.396,5.693-4.085c0-2.982-2.469-3.473-4.271-3.831
		c-0.953-0.187-1.708-0.338-1.708-0.771c0-0.543,0.872-0.619,1.72-0.619c1.125,0,2.272,0.204,3.32,0.58l0.206,0.078v-3.358
		l-0.121-0.021c-1.237-0.266-2.585-0.409-3.795-0.409C47.639,37.717,45.618,39.045,45.618,41.667"/>
	<path fill="#003865" d="M56.633,43.932c0,4.019,2.293,6.222,6.462,6.222c4.195,0,6.509-2.203,6.509-6.222
		c0-3.95-2.374-6.215-6.509-6.215C58.984,37.717,56.633,39.981,56.633,43.932 M61.502,43.932c0-2.043,0.534-3.085,1.593-3.085
		c1.425,0,1.615,1.767,1.634,3.091c-0.019,1.488-0.161,3.083-1.634,3.083C62.022,47.021,61.502,46.012,61.502,43.932z"/>
	<path fill="#003865" d="M70.521,37.918h-0.151v12.037h6.756c2.507,0,4.827-0.413,4.827-3.417c0-1.078-0.812-2.299-2.195-2.706
		c1.351-0.496,1.984-1.422,1.984-2.866c0-1.968-1.445-3.048-4.064-3.048H70.521z M75.805,45.128c1.033,0,1.474,0.312,1.474,1.042
		c0,0.983-1.153,1.054-1.51,1.054h-0.984v-2.096H75.805z M75.819,40.445c0.892,0,1.342,0.332,1.342,0.988
		c0,0.802-0.782,0.968-1.442,0.968h-0.935v-1.956H75.819z"/>
	<path fill="#003865" d="M70.521,37.918h-0.151v12.038h6.756c2.507,0,4.827-0.414,4.827-3.418c0-1.078-0.812-2.299-2.195-2.706
		c1.351-0.496,1.984-1.421,1.984-2.866c0-1.968-1.445-3.048-4.064-3.048H70.521z M75.805,45.128c1.033,0,1.474,0.313,1.474,1.042
		c0,0.983-1.153,1.054-1.51,1.054h-0.984v-2.096H75.805z M75.819,40.445c0.892,0,1.342,0.332,1.342,0.988
		c0,0.802-0.782,0.969-1.442,0.969h-0.935v-1.957H75.819z"/>
	<path fill="#003865" d="M38.562,35.775L37.2,37.023l0.099,0.082c0.039,0.034,0.8,0.667,2.044,1.009
		C36.61,38.921,35,41.001,35,43.766c0,3.92,2.653,6.354,6.928,6.354c1.407,0,2.773-0.362,3.161-0.473l0.082-0.029v-3.361
		l-0.154,0.055c-0.854,0.302-1.589,0.446-2.322,0.446c-1.876,0-2.997-1.092-2.997-2.924c0-1.739,1.204-2.818,3.142-2.818
		c0.732,0,1.466,0.204,2.151,0.43l0.153,0.051v-3.351l-0.33-0.065c-0.589-0.107-1.082-0.197-1.606-0.256
		c0.947-0.42,1.573-0.991,1.882-1.326l0.089-0.094l-0.523-0.394l-0.072,0.076c-0.012,0.013-0.988,1.056-2.794,1.041
		c-1.923-0.021-3.042-1.335-3.055-1.345l-0.08-0.097L38.562,35.775z"/>
</g>
</svg>
