<?xml version="1.0" encoding="utf-8"?>
<!-- Generator: Adobe Illustrator 16.0.0, SVG Export Plug-In . SVG Version: 6.00 Build 0)  -->
<!DOCTYPE svg PUBLIC "-//W3C//DTD SVG 1.1//EN" "http://www.w3.org/Graphics/SVG/1.1/DTD/svg11.dtd">
<svg version="1.1" id="Vrstva_1" xmlns="http://www.w3.org/2000/svg" xmlns:xlink="http://www.w3.org/1999/xlink" x="0px" y="0px"
	 width="30px" height="30px" viewBox="0 0 30 30" enable-background="new 0 0 30 30" xml:space="preserve">
<path d="M15-0.001c-8.285,0-15,6.717-15,15c0,8.285,6.715,15.002,15,15.002c8.283,0,15-6.717,15-15.002
	C30,6.716,23.283-0.001,15-0.001z M20.145,8.044l-1.961,0.002c-1.535,0-1.834,0.73-1.834,1.801v2.365h3.666l-0.477,3.701H16.35
	v9.498h-3.822v-9.498H9.33v-3.701h3.197v-2.73c0-3.168,1.936-4.895,4.762-4.895c1.354,0,2.516,0.102,2.855,0.146V8.044z"/>
</svg>
