<?xml version="1.0" encoding="utf-8"?>
<!-- Generator: Adobe Illustrator 16.0.0, SVG Export Plug-In . SVG Version: 6.00 Build 0)  -->
<!DOCTYPE svg PUBLIC "-//W3C//DTD SVG 1.1//EN" "http://www.w3.org/Graphics/SVG/1.1/DTD/svg11.dtd">
<svg version="1.1" id="Vrstva_1" xmlns="http://www.w3.org/2000/svg" xmlns:xlink="http://www.w3.org/1999/xlink" x="0px" y="0px"
	 width="30px" height="30px" viewBox="0 0 30 30" enable-background="new 0 0 30 30" xml:space="preserve">
<path d="M15-0.001c-8.285,0-15,6.717-15,15c0,8.285,6.715,15.002,15,15.002s15-6.717,15-15.002C30,6.716,23.285-0.001,15-0.001z
	 M11.068,22.646H7.227V11.093h3.842V22.646z M9.146,9.517H9.123C7.834,9.517,7,8.626,7,7.519c0-1.135,0.859-1.998,2.172-1.998
	c1.314,0,2.125,0.863,2.148,1.998C11.32,8.626,10.486,9.517,9.146,9.517z M24.918,22.646h-3.84v-6.18
	c0-1.555-0.557-2.615-1.947-2.615c-1.061,0-1.693,0.719-1.971,1.406c-0.102,0.248-0.127,0.592-0.127,0.938v6.451h-3.84
	c0,0,0.049-10.471,0-11.553h3.84v1.637c0.512-0.787,1.424-1.908,3.463-1.908c2.525,0,4.422,1.652,4.422,5.201V22.646z"/>
</svg>
