<?xml version="1.0" encoding="utf-8"?>
<!-- Generator: Adobe Illustrator 16.0.0, SVG Export Plug-In . SVG Version: 6.00 Build 0)  -->
<!DOCTYPE svg PUBLIC "-//W3C//DTD SVG 1.1//EN" "http://www.w3.org/Graphics/SVG/1.1/DTD/svg11.dtd">
<svg version="1.1" id="Vrstva_1" xmlns="http://www.w3.org/2000/svg" xmlns:xlink="http://www.w3.org/1999/xlink" x="0px" y="0px"
	 width="28.266px" height="30px" viewBox="0 0 28.266 30" enable-background="new 0 0 28.266 30" xml:space="preserve">
<path fill="#FFFFFF" d="M13.265,0l-1.812,1.812L24.64,15L11.453,28.188L13.265,30l15-15L13.265,0z M1.812,0L0,1.812L13.189,15
	L0,28.188L1.812,30l15.002-15L1.812,0z"/>
</svg>
