<?xml version="1.0" encoding="utf-8"?>
<!-- Generator: Adobe Illustrator 16.0.0, SVG Export Plug-In . SVG Version: 6.00 Build 0)  -->
<!DOCTYPE svg PUBLIC "-//W3C//DTD SVG 1.1//EN" "http://www.w3.org/Graphics/SVG/1.1/DTD/svg11.dtd">
<svg version="1.1" id="Vrstva_1" xmlns="http://www.w3.org/2000/svg" xmlns:xlink="http://www.w3.org/1999/xlink" x="0px" y="0px"
	 width="171px" height="134.42px" viewBox="0 0 171 134.42" enable-background="new 0 0 171 134.42" xml:space="preserve">
<g>
	<g>
		<g>
			<g>
				<g>
					<path fill-rule="evenodd" clip-rule="evenodd" fill="#B51352" d="M132.845,114.401c-0.973-0.07-1.794-0.178-2.615-0.167
						c-0.729,0.005-1.471,0.086-2.179,0.248c-2.378,0.535-3.869,2.259-4.021,4.686c-0.038,0.638-0.265,0.957-0.832,1.184
						c-0.627,0.249-1.222,0.584-1.919,0.925c0.135-1.567,0.546-2.924,1.335-4.156c1.318-2.06,3.21-3.243,5.61-3.616
						c1.107-0.167,2.227-0.265,3.34-0.405c1.378-0.178,2.756-0.372,4.134-0.557c0.113-0.016,0.232-0.026,0.384-0.043
						c0.032,0.168,0.076,0.309,0.081,0.443c0.108,4.961,0.676,9.89,1.064,14.83c0.07,0.896,0.266,1.783,0.416,2.675
						c0.038,0.237,0.114,0.476,0.195,0.702c0.34,0.919,0.962,1.356,1.945,1.384c0.535,0.011,1.064,0,1.665,0
						c-0.06,0.265-0.114,0.519-0.174,0.8c-2.112,0.356-4.204,0.703-6.404,1.07c-0.297-2.291-0.372-4.572-0.632-6.907
						c-0.222-0.021-0.427-0.064-0.638-0.064c-2.178-0.006-4.351,0.005-6.523-0.011c-0.421-0.006-0.648,0.151-0.881,0.497
						c-0.811,1.216-1.621,2.438-2.529,3.583c-1.075,1.346-2.453,2.303-4.172,2.687c-2.205,0.491-4.275,0.248-6.112-1.168
						c-0.098-0.07-0.184-0.156-0.346-0.303c0.302-0.324,0.604-0.627,0.892-0.94c0.281-0.303,0.546-0.621,0.843-0.967
						c0.211,0.227,0.335,0.34,0.438,0.465c1.303,1.545,2.968,1.994,4.875,1.312c0.989-0.351,1.849-0.924,2.519-1.713
						c0.864-1.021,1.708-2.075,2.453-3.183c0.876-1.298,1.648-2.659,2.433-4.005c1.643-2.805,3.264-5.621,4.891-8.431
						C132.516,115.028,132.634,114.791,132.845,114.401z M133.256,115.92c-0.567,0.622-5.875,9.928-5.988,10.441
						c0.979,0.141,6.323,0.092,6.874-0.075C133.856,122.876,133.559,119.455,133.256,115.92z"/>
				</g>
			</g>
			<g>
				<path fill-rule="evenodd" clip-rule="evenodd" fill="#B51352" d="M80.082,122.573c-0.043-0.627,0.07-1.07,0.492-1.411
					c0.849-0.697,1.665-1.432,2.551-2.075c0.719-0.519,1.562-0.794,2.465-0.826c1.453-0.065,2.259,0.648,2.172,2.097
					c-0.059,1.064-0.286,2.124-0.486,3.178c-0.421,2.205-0.886,4.399-1.308,6.604c-0.081,0.405-0.108,0.826-0.07,1.237
					c0.055,0.676,0.557,0.983,1.194,0.74c0.335-0.13,0.665-0.318,0.936-0.551c0.497-0.433,0.983-0.887,1.416-1.379
					c1.691-1.881,3.074-3.978,4.264-6.204c0.146-0.275,0.232-0.589,0.297-0.896c0.313-1.476,0.611-2.957,0.93-4.502
					c0.951-0.13,1.892-0.114,2.913-0.151c-0.07,0.335-0.124,0.589-0.178,0.848c-0.816,3.94-1.644,7.88-2.454,11.82
					c-0.06,0.28-0.092,0.583-0.07,0.87c0.032,0.551,0.384,0.875,0.924,0.778c0.422-0.076,0.876-0.217,1.211-0.465
					c0.778-0.584,1.503-1.243,2.227-1.892c0.179-0.157,0.298-0.379,0.503-0.52c0.054,0.622-0.076,1.113-0.519,1.535
					c-0.968,0.908-1.94,1.789-3.156,2.356c-0.692,0.33-1.416,0.535-2.194,0.48c-1.124-0.081-1.725-0.696-1.778-1.832
					c-0.06-1.286,0.297-2.513,0.535-3.756c0.146-0.783,0.313-1.567,0.48-2.421c-0.416,0.092-0.453,0.384-0.578,0.589
					c-0.789,1.292-1.54,2.61-2.372,3.87c-0.659,1.005-1.486,1.875-2.465,2.588c-0.643,0.465-1.34,0.795-2.129,0.93
					c-1.573,0.271-2.562-0.476-2.729-2.064c-0.13-1.188,0.162-2.329,0.384-3.48c0.443-2.297,0.908-4.594,1.356-6.891
					c0.07-0.362,0.119-0.724,0.13-1.092c0.021-0.708-0.352-1.059-1.06-0.924c-0.395,0.075-0.811,0.238-1.129,0.476
					c-0.741,0.557-1.422,1.184-2.124,1.789C80.482,122.179,80.32,122.346,80.082,122.573z"/>
			</g>
			<g>
				<g>
					<path fill-rule="evenodd" clip-rule="evenodd" fill="#B51352" d="M53.481,129.869c0.033,0.643-0.097,1.081-0.476,1.448
						c-0.892,0.876-1.81,1.708-2.929,2.297c-0.719,0.384-1.481,0.644-2.302,0.638c-1.27-0.011-2.032-0.676-1.973-1.935
						c0.049-1.135,0.292-2.271,0.476-3.399c0.124-0.746,0.297-1.481,0.438-2.227c0.027-0.136,0.005-0.275,0.005-0.449
						c-0.346,0.093-0.389,0.384-0.497,0.605c-0.773,1.589-1.686,3.086-2.854,4.421c-0.746,0.849-1.556,1.621-2.519,2.222
						c-0.74,0.454-1.529,0.762-2.416,0.762c-1.481,0.006-2.492-0.757-2.756-2.216c-0.146-0.827-0.216-1.713-0.103-2.54
						c0.546-4.064,2.686-7.177,5.982-9.507c1.513-1.064,3.259-1.556,5.107-1.578c1.367-0.016,2.734,0.06,4.102,0.104
						c0.136,0.005,0.276,0.064,0.476,0.113c-0.162,0.691-0.335,1.351-0.47,2.011c-0.729,3.588-1.438,7.177-2.173,10.766
						c-0.2,0.983,0.276,1.724,1.551,1.194c0.995-0.417,1.746-1.162,2.497-1.897C52.909,130.453,53.157,130.198,53.481,129.869z
						 M47.947,120.584c-1.011-0.502-2.005-0.724-3.032-0.815c-1.546-0.141-2.767,0.459-3.686,1.675
						c-0.351,0.471-0.67,0.973-0.913,1.497c-0.406,0.887-0.762,1.794-1.097,2.713c-0.443,1.222-0.713,2.491-0.751,3.789
						c-0.021,0.648,0.049,1.318,0.222,1.939c0.2,0.725,0.794,0.979,1.502,0.741c0.368-0.125,0.729-0.309,1.027-0.541
						c0.557-0.443,1.092-0.908,1.578-1.416c1.719-1.789,3.129-3.81,4.302-5.988c0.098-0.173,0.2-0.351,0.238-0.534
						C47.547,122.644,47.736,121.638,47.947,120.584z"/>
				</g>
			</g>
			<g>
				<path fill-rule="evenodd" clip-rule="evenodd" fill="#B51352" d="M19.217,113.272c-0.4,1.302-0.784,2.528-1.173,3.793
					c-0.275,0-0.524,0-0.816,0c0.032-0.254,0.06-0.464,0.081-0.681c0.092-0.854-0.211-1.551-0.902-2.032
					c-0.417-0.291-0.875-0.567-1.357-0.702c-2.778-0.806-5.312-0.395-7.469,1.653c-1.205,1.141-2.097,2.503-2.789,4.005
					c-1.048,2.259-1.729,4.621-1.681,7.134c0.021,0.865,0.162,1.757,0.416,2.589c0.703,2.286,2.621,3.702,5.01,3.826
					c2.162,0.119,4.221-0.346,6.226-1.107c0.292-0.114,0.583-0.228,0.983-0.384c-0.059,0.356-0.065,0.648-0.162,0.908
					c-0.065,0.178-0.227,0.389-0.4,0.453c-2.653,1.043-5.367,1.816-8.258,1.659c-0.676-0.037-1.362-0.146-2.016-0.335
					c-2.626-0.751-4.226-2.545-4.686-5.188c-1.119-6.409,2.016-12.262,7.242-15.062c1.686-0.908,3.507-1.308,5.42-1.341
					c1.865-0.026,3.708,0.151,5.518,0.59C18.661,113.115,18.909,113.19,19.217,113.272z"/>
			</g>
			<g>
				<path fill-rule="evenodd" clip-rule="evenodd" fill="#B51352" d="M162.721,119.611c-0.994,0-1.962,0-3.043,0
					c0.379-0.638,0.692-1.086,1.433-1.026c0.605,0.054,1.21,0.011,1.854,0.011c0.286-1.384,0.562-2.691,0.838-4.021
					c0.93-0.227,1.826-0.443,2.854-0.691c-0.309,1.589-0.595,3.075-0.897,4.653c0.902,0.119,1.751,0.043,2.589,0.06
					c0.821,0.011,1.643,0,2.653,0c-0.399,0.432-0.638,0.778-0.951,1.011c-0.189,0.129-0.503,0.113-0.762,0.107
					c-1.098-0.032-2.194-0.086-3.286-0.124c-0.146-0.006-0.286,0.032-0.48,0.054c-0.179,0.897-0.357,1.772-0.53,2.659
					c-0.54,2.778-1.086,5.551-1.616,8.334c-0.054,0.28-0.075,0.583-0.064,0.87c0.043,0.74,0.481,1.124,1.216,1.016
					c0.433-0.064,0.87-0.189,1.249-0.389c0.686-0.373,1.324-0.822,1.978-1.243c0.2-0.13,0.39-0.281,0.627-0.46
					c0.011,0.714-0.194,1.228-0.713,1.654c-1.179,0.983-2.405,1.848-3.962,2.103c-0.07,0.011-0.141,0.032-0.211,0.037
					c-1.858,0.249-2.961-0.653-2.907-2.534c0.038-1.162,0.26-2.324,0.476-3.47c0.514-2.708,1.081-5.41,1.616-8.112
					C162.705,119.968,162.705,119.827,162.721,119.611z"/>
			</g>
			<g>
				<path fill-rule="evenodd" clip-rule="evenodd" fill="#B51352" d="M25.243,126.199c0.13-0.227,0.265-0.448,0.384-0.681
					c1.021-1.989,2.275-3.815,3.929-5.34c0.74-0.681,1.535-1.297,2.486-1.653c1.027-0.379,2.043-0.395,3.124,0.151
					c-0.616,0.837-1.2,1.643-1.805,2.459c-0.195-0.076-0.357-0.125-0.498-0.206c-0.713-0.399-1.432-0.361-2.097,0.044
					c-0.557,0.34-1.135,0.708-1.562,1.188c-0.935,1.06-1.843,2.151-2.643,3.313c-2.032,2.95-2.005,2.967-2.67,6.469
					c-0.119,0.621-0.254,1.237-0.395,1.924c-0.951,0.141-1.892,0.098-2.929,0.179c0.135-0.578,0.249-1.043,0.346-1.514
					c0.735-3.556,1.475-7.117,2.194-10.679c0.07-0.357,0.081-0.735,0.054-1.092c-0.07-0.849-0.567-1.2-1.356-0.908
					c-0.492,0.184-0.984,0.448-1.395,0.784c-0.768,0.632-1.47,1.34-2.243,2.054c-0.005-0.503,0.06-0.946,0.454-1.287
					c0.892-0.762,1.756-1.556,2.675-2.27c0.644-0.497,1.405-0.783,2.221-0.902c1.47-0.217,2.356,0.529,2.427,2.005
					c0.07,1.362-0.259,2.664-0.508,3.983c-0.125,0.643-0.254,1.28-0.378,1.924C25.119,126.161,25.184,126.178,25.243,126.199z"/>
			</g>
			<g>
				<path fill-rule="evenodd" clip-rule="evenodd" fill="#B51352" d="M156.803,121.146c-0.168-0.065-0.265-0.087-0.346-0.136
					c-0.902-0.562-1.795-0.427-2.6,0.168c-0.644,0.476-1.265,1.005-1.8,1.595c-1.589,1.745-2.794,3.761-3.962,5.799
					c-0.107,0.184-0.156,0.405-0.199,0.621c-0.287,1.384-0.584,2.768-0.838,4.161c-0.076,0.416-0.249,0.595-0.665,0.59
					c-0.751-0.012-1.502,0-2.323,0c0.037-0.238,0.081-0.492,0.135-0.741c0.778-3.75,1.572-7.495,2.335-11.252
					c0.086-0.421,0.092-0.881,0.048-1.308c-0.075-0.725-0.562-1.07-1.237-0.816c-0.584,0.222-1.156,0.541-1.643,0.93
					c-0.703,0.557-1.324,1.216-2.07,1.919c-0.021-0.46,0.006-0.811,0.281-1.108c1.064-1.124,2.178-2.178,3.583-2.869
					c0.6-0.292,1.227-0.492,1.897-0.492c1.184,0.006,1.875,0.633,1.978,1.811c0.103,1.211-0.124,2.384-0.367,3.562
					c-0.179,0.854-0.335,1.713-0.514,2.616c0.373-0.06,0.395-0.341,0.492-0.53c0.913-1.767,1.983-3.421,3.372-4.858
					c0.783-0.811,1.627-1.551,2.648-2.064c1.15-0.578,2.318-0.67,3.609-0.075C158.003,119.503,157.419,120.303,156.803,121.146z"/>
			</g>
			<g>
				<path fill-rule="evenodd" clip-rule="evenodd" fill="#B51352" d="M66.366,133.409c0.676-0.601,1.275-1.13,1.94-1.725
					c0.092,0.055,0.318,0.184,0.546,0.319c1.059,0.621,2.188,0.951,3.426,0.859c0.627-0.049,1.189-0.26,1.676-0.654
					c0.745-0.605,0.978-1.438,0.529-2.291c-0.313-0.601-0.729-1.151-1.156-1.681c-0.508-0.627-1.092-1.189-1.616-1.8
					c-0.405-0.486-0.8-0.989-1.146-1.514c-1.054-1.589-0.648-3.113,0.243-4.216c1.416-1.756,3.28-2.562,5.534-2.437
					c0.8,0.043,1.594,0.178,2.416,0.54c-0.195,1-0.39,1.994-0.59,3.005c-0.275,0.011-0.491,0.021-0.756,0.038
					c-0.006-0.2-0.017-0.357-0.022-0.52c-0.048-1.005-0.513-1.615-1.485-1.815c-0.768-0.162-1.557-0.168-2.319,0.064
					c-1.167,0.362-1.762,1.433-1.361,2.595c0.194,0.567,0.508,1.113,0.864,1.594c0.53,0.703,1.157,1.324,1.714,2.006
					c0.508,0.626,1.032,1.248,1.448,1.929c0.881,1.448,0.751,2.849-0.39,4.107c-1.719,1.881-3.896,2.621-6.404,2.395
					C68.435,134.117,67.441,133.874,66.366,133.409z"/>
			</g>
			<g>
				<path fill-rule="evenodd" clip-rule="evenodd" fill="#B51352" d="M53.357,133.328c0.541-0.562,1.098-1.13,1.681-1.735
					c0.254,0.141,0.486,0.265,0.714,0.395c1.054,0.627,2.184,0.962,3.421,0.876c0.654-0.044,1.237-0.265,1.74-0.687
					c0.713-0.6,0.924-1.405,0.503-2.237c-0.298-0.578-0.697-1.119-1.108-1.627c-0.486-0.61-1.06-1.151-1.562-1.751
					c-0.454-0.54-0.897-1.097-1.286-1.681c-0.989-1.497-0.633-3.054,0.254-4.156c1.28-1.6,2.961-2.438,5.015-2.47
					c0.984-0.011,1.94,0.156,2.957,0.54c-0.195,0.995-0.39,1.989-0.595,3.011c-0.281,0-0.514,0-0.821,0c0-0.249,0.016-0.481,0-0.719
					c-0.049-0.735-0.433-1.243-1.125-1.47c-0.956-0.303-1.935-0.309-2.875,0.054c-1.032,0.389-1.519,1.513-1.092,2.61
					c0.232,0.605,0.595,1.178,0.989,1.697c0.53,0.697,1.173,1.308,1.725,1.994c0.502,0.627,0.994,1.27,1.399,1.956
					c0.751,1.26,0.557,2.502-0.309,3.626c-1.054,1.373-2.491,2.168-4.166,2.529c-1.832,0.4-3.595,0.076-5.312-0.583
					C53.465,133.484,53.444,133.431,53.357,133.328z"/>
			</g>
			<g>
				<path fill-rule="evenodd" clip-rule="evenodd" fill="#B51352" d="M99.684,133.339c0.632-0.535,1.237-1.054,1.843-1.573
					c-0.027-0.054-0.049-0.113-0.076-0.167c0.228,0.13,0.454,0.259,0.676,0.389c1.06,0.622,2.184,0.962,3.421,0.876
					c0.682-0.049,1.286-0.281,1.795-0.735c0.648-0.578,0.859-1.335,0.48-2.113c-0.275-0.567-0.643-1.097-1.037-1.583
					c-0.535-0.665-1.151-1.265-1.703-1.919c-0.438-0.519-0.864-1.06-1.237-1.627c-1.011-1.534-0.67-3.026,0.281-4.204
					c1.248-1.551,2.892-2.362,4.886-2.427c0.983-0.032,2.064,0.162,3.01,0.557c-0.07,0.989-0.389,1.962-0.54,2.994
					c-0.287,0-0.514,0-0.795,0c0-0.216,0.011-0.378,0-0.546c-0.07-0.946-0.502-1.508-1.416-1.719
					c-0.789-0.189-1.6-0.194-2.389,0.049c-1.167,0.356-1.756,1.421-1.356,2.583c0.189,0.567,0.503,1.119,0.859,1.6
					c0.529,0.697,1.156,1.319,1.713,2c0.52,0.644,1.06,1.286,1.486,1.994c0.833,1.373,0.687,2.756-0.373,3.988
					c-1.091,1.265-2.491,2.021-4.118,2.352c-1.783,0.361-3.496,0.037-5.166-0.584C99.862,133.501,99.814,133.441,99.684,133.339z"/>
			</g>
		</g>
	</g>
	<g>
		<path fill-rule="evenodd" clip-rule="evenodd" d="M34.02,105.9c-1.492-0.806-1.686-1.902-0.957-3.302
			c0.454-0.881,1.054-1.708,1.719-2.443c2.01-2.216,4.404-3.929,7.085-5.247c1.097-0.546,2.249-0.936,3.519-1.07
			c-0.125-0.287-0.222-0.519-0.378-0.876c0.378,0.027,0.654,0.044,0.93,0.06c0.486,0.032,0.973,0.098,1.454,0.087
			c0.421-0.006,0.821-0.125,1.081-0.492c-0.081-0.551-0.616-0.399-0.914-0.621c0.054-0.06,0.092-0.13,0.146-0.162
			c3.059-1.832,6.02-3.821,9.247-5.367c1.481-0.708,2.983-1.367,4.616-1.604c0.837-0.119,1.696-0.104,2.621-0.146
			c0.016-0.027,0.086-0.124,0.135-0.232c1.313-2.929,2.378-5.929,2.918-9.111c0.524-3.103-0.124-5.864-2.112-8.312
			c-1.114-1.373-2.362-2.604-3.702-3.745c-1.821-1.557-3.676-3.069-5.497-4.626c-1.691-1.443-3.274-3-4.604-4.805
			c-1.399-1.897-2.377-3.973-2.718-6.323c-0.016-0.098-0.043-0.194-0.038-0.292c0.103-1.832-0.497-3.562-0.805-5.334
			c-2.146-12.127,0.946-22.715,9.511-31.583c5.14-5.323,11.479-8.539,18.765-9.841c1.529-0.271,3.103-0.341,4.653-0.498
			c0.216-0.021,0.433-0.005,0.768-0.005c-0.324,0.557-0.714,0.914-1.2,1.125c-0.578,0.254-1.184,0.454-1.789,0.621
			c-0.994,0.276-1.988,0.535-2.821,1.173c-0.221,0.173-0.491,0.308-0.594,0.692c0.632,0.151,1.231,0.125,1.821-0.016
			c1.14-0.276,2.27-0.579,3.404-0.865c1.265-0.319,2.54-0.508,3.849-0.4c0.14,0.011,0.28,0,0.416,0
			c0.167-0.875,0.011-1.032-1.168-1.313c0.616-0.113,1.228-0.254,1.843-0.34c2.832-0.395,5.659-0.373,8.432,0.378
			c0.886,0.238,1.751,0.61,2.583,1.01c0.94,0.449,1.67,1.173,2.178,2.048c0.465,0.086,0.725-0.14,0.897-0.443
			c0.329-0.567,0.783-0.859,1.524-0.735c-0.433-1.394-1.708-1.702-2.811-2.394c0.854-0.324,1.627-0.378,2.356-0.119
			c0.632,0.227,1.254,0.562,1.783,0.967c0.659,0.497,1.216,1.124,1.821,1.697c0.497,0.47,0.979,0.957,1.497,1.4
			c0.945,0.811,2.026,1.351,3.286,1.486c0.141,0.016,0.28,0.043,0.432,0.07c0.108,0.665-0.254,1.038-0.702,1.362
			c-0.39,0.281-0.849,0.497-1.064,1.064c0.454,0.33,0.907,0.66,1.432,1.043c1.13-0.448,1.352-1.578,1.654-2.74
			c0.427,0.389,0.546,0.837,0.491,1.281c-0.06,0.47-0.194,0.957-0.399,1.389c-0.238,0.502-0.605,0.94-0.892,1.421
			c-0.384,0.648-0.752,1.302-1.151,2.01c-0.027-0.021-0.108-0.06-0.157-0.119c-0.821-1.005-1.843-1.746-2.982-2.334
			c-3.243-1.67-6.702-2.513-10.339-2.675c-0.168-0.005-0.341,0-0.514,0.005c-0.07,0-0.141,0.022-0.211,0.033
			c0.173,1.221,0.838,1.605,2.6,1.432c-0.438,0.459-0.897,0.767-1.395,1.021c-1.107,0.562-2.297,0.816-3.523,0.892
			c-2.146,0.135-4.237-0.173-6.291-0.794c-0.265-0.081-0.572-0.308-0.8,0.016c-0.227,0.34,0.044,0.611,0.254,0.838
			c0.405,0.421,0.854,0.805,1.271,1.216c0.275,0.27,0.567,0.541,0.8,0.854c0.362,0.492,0.248,0.784-0.356,0.957
			c-0.324,0.092-0.665,0.13-1.055,0.205c0.13,0.297,0.266,0.568,0.362,0.859c0.087,0.276,0.125,0.567,0.189,0.854
			c1.064,0.373,1.61,0.065,1.902-1.103c0.346-0.027,0.584,0.13,0.729,0.438c0.065,0.135,0.108,0.275,0.157,0.411
			c0.313,0.919,0.335,0.93,1.297,1.076c-0.065,0.33-0.157,0.654-0.189,0.989c-0.064,0.751-0.124,1.508-0.146,2.259
			c-0.027,0.854,0.07,1.718-0.027,2.562c-0.092,0.805-0.367,1.589-0.573,2.432c1.811-0.443,2.93-1.595,3.443-3.383
			c0.675,0.578,0.87,1.265,0.562,2.119c-0.156,0.459-0.384,0.897-0.616,1.324c-0.594,1.108-0.988,2.238-0.589,3.524
			c-0.843,0.746-1.854,0.692-2.881,0.687c-0.184,0.626,0.136,1.432-0.643,1.81c0.124,0.389,0.421,0.503,0.734,0.568
			c0.384,0.076,0.773,0.103,1.157,0.184c0.259,0.054,0.529,0.124,0.757,0.254c0.346,0.184,0.47,0.622,0.383,1.027
			c-0.086,0.411-0.416,0.357-0.696,0.362c-0.313,0.005-0.633,0-0.946-0.043c-0.875-0.119-1.054-0.259-1.465-1.092
			c-0.156,0.119-0.313,0.216-0.432,0.352c-0.66,0.751-1.324,1.502-1.957,2.281c-1.118,1.384-2.216,2.794-3.334,4.183
			c-0.184,0.232-0.232,0.427-0.168,0.725c0.179,0.783,0.346,1.578,0.416,2.372c0.125,1.378,0.271,2.729,1.249,3.815
			c-0.357,0.665-0.903,0.784-1.519,0.719c-0.746-0.081-1.405-0.41-2.021-0.815c-0.2-0.136-0.395-0.281-0.589-0.422
			c-0.795,0.589-1.032,1.318-0.622,2.167c0.243,0.503,0.6,0.946,0.902,1.422c0.26,0.41,0.52,0.821,0.746,1.254
			c0.151,0.28,0.098,0.546-0.156,0.789c-0.422,0.399-0.816,0.832-1.206,1.231c-0.103-0.054-0.173-0.07-0.173-0.097
			c-0.167-1.341-0.664-2.595-1.086-3.87c-0.303-0.924-0.589-1.858-0.816-2.805c-0.254-1.07-0.28-2.135,0.492-3.064
			c-0.887-0.265-1.454-0.043-1.74,0.729c-0.184,0.471-0.254,0.989-0.367,1.486c-0.076,0.309-0.119,0.627-0.222,0.925
			c-0.276,0.8-0.746,1.059-1.729,0.924c1.178-2.232,1.135-4.729,1.724-7.123c-0.687-0.271-1.27-0.232-1.789,0.249
			c-0.194,0.184-0.367,0.395-0.567,0.572c-0.361,0.313-0.54,0.352-1.14,0.281c-0.151-0.946,0.28-1.708,1.205-2.06
			c0.849-0.318,1.729-0.265,2.6-0.113c0.432,0.076,0.849,0.217,1.335,0.243c-0.146-0.124-0.292-0.237-0.428-0.373
			c-0.173-0.167-0.372-0.324-0.486-0.529c-0.107-0.179-0.113-0.416-0.167-0.665c-0.39-0.151-0.795-0.048-1.2,0.006
			c-2.881,0.352-4.745,2.167-5.28,5.091c-0.583,3.184,0.049,6.172,1.729,8.928c0.313,0.514,0.735,0.979,1.168,1.4
			c0.772,0.762,1.707,1.118,2.843,0.886c0.026,0.162,0.075,0.276,0.064,0.384c-0.06,0.93,0.33,1.681,0.973,2.286
			c1.659,1.552,3.6,2.184,5.858,1.648c0.119-0.027,0.238-0.049,0.356-0.07c0.022-0.005,0.049,0.011,0.119,0.027
			c0.098,0.751,0.205,1.519,0.292,2.291c0.162,1.471,0.746,2.768,1.643,3.935c0.266,0.352,0.509,0.725,0.795,1.054
			c0.26,0.287,0.292,0.595,0.232,0.946c-0.151,0.875-0.433,1.34-1.135,1.762c-0.854-1.26-2.2-1.772-3.572-2.243
			c-1.535-0.529-2.492-1.578-2.876-3.15c-0.043-0.162-0.107-0.319-0.184-0.541c-0.27,0.044-0.529,0.076-0.783,0.136
			c-1.968,0.486-3.465,1.632-4.583,3.308c-0.806,1.21-1.399,2.523-1.783,3.918c-0.633,2.28-1.189,4.583-1.768,6.88
			c-0.557,2.205-1.146,4.394-2.146,6.453c-0.989,2.037-2.335,3.771-4.28,4.988c-0.06,0.037-0.113,0.086-0.243,0.188
			c0.248,0.151,0.438,0.281,0.643,0.384c1.438,0.714,2.471,1.806,3.086,3.286c0.26,0.633,0.541,1.259,0.816,1.886
			c0.26,0.584,0.751,0.73,1.286,0.384c0.119-0.081,0.238-0.184,0.313-0.303c0.367-0.551,0.784-1.01,1.61-0.8
			c-0.373-1.21-1.664-1.378-2.297-2.432c0.897,0.173,1.633,0.281,2.356,0.459c1.768,0.428,3.442,1.108,5.026,1.989
			c2.086,1.162,4.123,2.416,6.188,3.626c1.939,1.141,3.88,2.265,5.82,3.399c0.103,0.06,0.2,0.13,0.303,0.195
			c0,0.459-0.017,0.896,0.005,1.335c0.044,0.811,0.352,1.47,1.124,1.826c0.93,0.438,1.892,0.806,2.546,1.648
			c0.476-0.486,0.54-0.67,0.232-1.049c-0.286-0.356-0.644-0.67-1-0.956c-0.378-0.303-0.794-0.557-1.303-0.902
			c0.266,0,0.422-0.027,0.557,0.005c0.946,0.211,1.827,0.595,2.584,1.179c1.194,0.924,2.367,1.886,3.496,2.891
			c1.222,1.092,2.378,2.249,3.562,3.378c0.065,0.065,0.113,0.146,0.211,0.265c-0.529,0.313-1.075,0.449-1.632,0.411
			c-1.168-0.081-2.335-0.211-3.497-0.33c-0.529-0.054-1.06-0.129-1.659-0.21c0.6-1.038,0.021-1.768-0.653-2.433
			c-0.579-0.562-1.206-1.07-1.811-1.6c-0.644-0.557-1.292-1.103-2.038-1.74c0.011,1.038,0.162,1.968,0.578,2.805
			c0.405,0.816,0.957,1.562,1.46,2.367c-0.8,0.049-1.562-0.184-2.243-0.676c-0.729-0.523-0.94-1.323-1.038-2.193
			c-0.184,0.011-0.324,0.011-0.465,0.026c-1.329,0.157-2.523-0.194-3.55-1.037c-0.719-0.589-1.384-1.243-2.081-1.854
			c-0.524-0.465-1.07-0.914-1.616-1.373c-0.34,0.271-0.286,0.572-0.232,0.849c0.081,0.432,0.2,0.854,0.319,1.275
			c0.259,0.908,0.448,1.811-0.136,2.675c1.06,0.39,1.486,0.298,2.189-0.47c0.329-0.362,0.664-0.714,1.259-0.676
			c0.032,0.162,0.081,0.324,0.087,0.486c0.026,0.849,0.438,1.486,1.107,1.967c0.433,0.313,0.897,0.584,1.341,0.893
			c0.48,0.34,0.913,0.724,1.118,1.361c-0.945,0.313-1.762,0.162-2.485-0.454c-0.298-0.254-0.557-0.551-0.854-0.805
			c-0.211-0.179-0.459-0.324-0.762-0.53c-0.076,0.347-0.119,0.579-0.184,0.806c-0.092,0.362-0.33,0.54-0.703,0.476
			c-0.265-0.043-0.529-0.103-0.783-0.184c-0.957-0.313-1.93-0.524-2.945-0.53c-0.087-0.005-0.168-0.037-0.352-0.081
			c0.173-0.146,0.281-0.232,0.378-0.324c0.605-0.557,0.741-1.15,0.292-1.826c-0.346-0.524-0.778-1.011-1.248-1.422
			c-0.811-0.713-1.676-1.351-2.519-2.016c-0.173-0.141-0.341-0.275-0.508-0.422c-0.703-0.621-0.659-1.438,0.103-2.021
			c0.271-0.211,0.562-0.395,0.811-0.627c0.422-0.4,0.492-0.773,0.318-1.395c-0.572,0.092-0.356,0.67-0.594,1.011
			c-0.524-0.346-0.703-1.151-1.476-1.06c-0.222,0.027-0.433,0.119-0.821,0.232c0.297,0.249,0.443,0.395,0.61,0.503
			c0.243,0.167,0.514,0.292,0.751,0.459c0.254,0.173,0.46,0.395,0.292,0.735c-0.156,0.308-0.41,0.491-0.772,0.422
			c-0.362-0.07-0.719-0.141-1.064-0.26c-0.757-0.271-1.508-0.567-2.352-0.887c-0.178,0.206-0.438,0.405-0.578,0.67
			c-0.476,0.903-1.081,1.53-2.28,1.141c0.13,0.589,0.454,0.925,0.756,1.26c0.211,0.232,0.443,0.459,0.703,0.638
			c0.811,0.578,0.994,0.875,1.67-0.281c0.346-0.584,0.681-0.638,1.47-0.335c-0.459,0.967-0.378,1.886,0.33,2.707
			c0.697,0.806,1.632,1.017,2.67,0.925c0.005,0.118,0.021,0.184,0.011,0.248c-0.119,0.946,0.021,1.184,0.896,1.465
			c0.07,0.021,0.141,0.038,0.211,0.06c1.017,0.313,1.179,0.665,0.768,1.708c-0.897,0.107-1.789,0.118-2.594-0.416
			c-0.849-0.567-0.936-1.476-0.968-2.573c-0.352,0.4-0.589,0.676-0.87,0.995c-0.141-0.108-0.26-0.211-0.384-0.309
			c-0.708,0.471-0.719,1.151-0.038,1.859c-0.232,0.497-0.476,0.67-1.01,0.562c-0.503-0.097-1-0.243-1.465-0.448
			c-0.611-0.275-0.67-1.086-0.119-1.491c0.232-0.173,0.519-0.265,0.784-0.39c0.442-0.211,0.442-0.211,0.681-0.691
			c-0.021-0.043-0.032-0.103-0.06-0.124c-1.892-1.303-3.762-2.638-5.686-3.881c-1.194-0.772-2.513-1.324-3.945-1.486
			c-1.367-0.156-2.551,0.205-3.534,1.205c0.092,0.422,0.351,0.627,0.719,0.665c0.384,0.038,0.778,0.027,1.167,0.027
			c0.751-0.011,1.497-0.228,2.248-0.044c0.357,0.838-0.199,1.465-0.453,2.151c0.059,0.027,0.107,0.07,0.135,0.06
			c0.908-0.433,1.092-0.4,1.789,0.297c0.188,0.189,0.373,0.384,0.567,0.573c0.47,0.438,1.016,0.665,1.664,0.621
			c0.141-0.005,0.281,0,0.481,0c-0.087,0.719,0.13,1.309,0.529,1.859c0.146,0.2,0.162,0.492,0.238,0.762
			c-0.514-0.075-0.951-0.21-1.384-0.184c-0.433,0.027-0.849,0.211-1.271,0.33c-0.935,0.27-1.297,0.286-2.135,0.07
			c-0.075-0.222-0.146-0.476-0.243-0.719c-0.303-0.778-0.854-1.108-1.675-0.957c-0.503,0.098-0.989,0.271-1.481,0.427
			c-0.486,0.157-0.962,0.346-1.448,0.509c-0.222,0.069-0.454,0.103-0.681,0.15c-0.021-0.043-0.049-0.086-0.075-0.129
			c0.097-0.119,0.162-0.276,0.286-0.352c0.352-0.222,0.719-0.405,1.081-0.61c0.405-0.228,0.821-0.438,1.205-0.697
			c0.691-0.465,0.687-1.06,0.011-1.567c-0.46-0.346-1.006-0.416-1.54-0.33c-0.94,0.151-1.865,0.368-2.8,0.557
			c-0.93,0.189-1.859,0.422-2.794,0.552c-0.957,0.13-1.865,0-2.535-0.957c-0.497,1.027-1.399,1.378-2.318,1.713
			c-0.362,0.136-0.713,0.313-1.07,0.471c-0.373,0.162-0.53,0.098-0.665-0.281c-0.054-0.135-0.054-0.292-0.108-0.427
			c-0.146-0.362-0.303-0.719-0.497-1.167c0.076-0.151,0.265,0.037,0.443,0.037c0.173,0.006,0.433-0.011,0.503-0.118
			c0.086-0.13,0.07-0.384,0.011-0.552c-0.151-0.362-0.503-0.47-0.854-0.448c-0.735,0.043-1.432,0.232-2.091,0.734
			c0.67,1.243,1.665,2.151,2.875,2.989c-1.081,0.362-2.081,0.551-3.097,0.61c-2.021,0.13-4.048,0.184-6.069,0.292
			c-1.146,0.06-2.292,0.146-3.437,0.238c-0.616,0.054-0.984-0.336-0.784-0.925c0.097-0.286,0.303-0.551,0.502-0.789
			c0.319-0.373,0.687-0.691,1.011-1.064C33.771,106.879,34.031,106.468,34.02,105.9z M79.763,25.953
			c0.275,0.557,0.772,1.151,1.188,1.427c0.093-0.356-0.075-0.622-0.324-0.821c-0.275-0.216-0.583-0.4-0.875-0.6
			c0.016-0.87,0.07-1.74,0.572-2.529c-0.324-0.141-0.567-0.243-0.811-0.346c-1.405-0.584-2.756-1.265-3.939-2.232
			c-1.232-1.011-2.167-2.178-1.886-3.945c-0.622,0.097-1.189,0.259-1.757,0.259c-0.562,0-1.119-0.162-1.729-0.265
			c0.098,0.502,0.184,0.935,0.281,1.416c-0.676-0.114-1.227-0.422-1.951-0.216c0.33,0.2,0.551,0.34,0.778,0.47
			c1.275,0.724,2.551,1.432,3.821,2.167c2.334,1.356,4.475,2.957,6.29,4.978C79.509,25.817,79.644,25.872,79.763,25.953z
			 M81.508,11.469c0.136-1.119-0.361-1.778-1.415-1.924c-1.454-0.2-2.811,0.119-4.07,0.859c-0.141,0.081-0.243,0.216-0.399,0.356
			c0.583,0.368,1.232,0.557,1.627,1.162c-0.562,0.124-1.076,0.173-1.541,0.356c-1.167,0.459-2.318,0.897-3.718,0.313
			c0.459,0.984,1.141,1.405,1.967,1.622c0.833,0.227,1.697,0.249,2.535,0.092c1.8-0.33,3.583-0.708,5.377-1.07
			c0.076-0.016,0.146-0.07,0.271-0.124c-0.308-0.411-0.702-0.454-1.081-0.476c-0.459-0.021-0.93,0.011-1.389-0.016
			c-0.238-0.011-0.486-0.06-0.703-0.151c-0.275-0.108-0.405-0.352-0.372-0.648c0.037-0.325,0.27-0.47,0.557-0.487
			c0.335-0.016,0.675,0.022,1.016,0.043C80.601,11.398,81.033,11.437,81.508,11.469z M82.163,20.381
			c0.924,0.238,1.8,0.184,2.465,0.767c0.664,0.589,0.811,1.47,1.178,2.194c0.762-0.178,1.476-0.308,2.173-0.524
			c0.67-0.2,0.724-0.529,0.227-1.162c-0.578,0.448-1.032,0.108-1.453-0.292c-0.357-0.335-0.671-0.708-1.021-1.043
			c-0.352-0.34-0.692-0.692-1.087-0.973c-0.751-0.524-1.41-0.411-1.988,0.292C82.493,19.846,82.368,20.078,82.163,20.381z
			 M83.378,33.692c-0.832,1.221-1.448,2.454-1.696,3.837c-0.06,0.329-0.055,0.686-0.012,1.021c0.044,0.395,0.157,0.789,0.509,1.054
			c1.011-0.995,1.815-2.605,1.913-3.897C84.152,34.989,84.005,34.308,83.378,33.692z M69.403,20.483
			c-1.016,0.2-1.621-0.346-2.243-0.865c-0.075-0.065-0.151-0.124-0.232-0.178c-0.659-0.465-0.999-0.395-1.519,0.356
			c1.065,0.373,1.665,1.238,2.275,2.097c0.324,0.459,0.627,0.935,0.979,1.373c0.227,0.281,0.497,0.541,0.789,0.751
			c0.378,0.27,0.794,0.313,1.243-0.038c-0.33-0.373-0.644-0.708-0.946-1.059C69.16,22.234,68.765,21.505,69.403,20.483z
			 M83.828,18.43c-0.243-1.735-3.34-4.069-5.08-3.826C79.374,16.095,81.838,17.949,83.828,18.43z M64.063,31.816
			c-0.178-0.94-0.745-2.183-1.28-2.799c-0.125-0.146-0.265-0.287-0.422-0.4c-0.443-0.319-0.74-0.26-1.162,0.243
			c0.471,0.535,0.535,1.227,0.703,1.886C62.205,31.952,62.826,32.265,64.063,31.816z M105.001,8.237
			c-0.151-0.708-0.508-1.156-0.988-1.502c-1.098-0.789-2.39-0.994-3.724-1.346c0.043,0.2,0.054,0.292,0.086,0.373
			c0.281,0.746,0.887,1.151,1.584,1.416C102.932,7.545,103.92,7.864,105.001,8.237z M82.26,30.666
			c-0.027,1.313,0.708,2.21,1.881,2.351c0.491,0.054,0.67-0.054,0.8-0.529c0.151-0.551-0.104-0.962-0.503-1.281
			C83.817,30.714,83.103,30.546,82.26,30.666z M67.112,16.122c0.405-0.946,0.173-1.622-0.601-1.767
			c-0.757-0.141-1.465,0.032-2.069,0.508c-0.601,0.47-0.481,0.973,0.265,1.243c0.124-0.346,0.243-0.692,0.373-1.054
			c0.378,0.265,0.653,0.498,0.967,0.66C66.366,15.879,66.728,15.976,67.112,16.122z M88.961,7.026
			c0.67,0.259,1.281,0.492,1.886,0.729c0.476,0.189,0.936,0.427,1.422,0.567c0.573,0.162,0.887-0.005,1.135-0.432
			c-0.567-0.254-1.141-0.514-1.713-0.773c-0.443-0.194-0.876-0.427-1.335-0.578C89.789,6.351,89.318,6.556,88.961,7.026z
			 M56.984,29.59c0.081,0.768,0.232,1.427,0.594,2.016c0.373,0.622,0.914,0.908,1.644,0.811
			C59.281,31.244,58.669,30.46,56.984,29.59z"/>
		<path fill-rule="evenodd" clip-rule="evenodd" d="M118.902,103.025c-0.292,0.47-0.222,0.945,0.06,1.361
			c0.271,0.4,0.605,0.763,0.945,1.108c0.562,0.578,1.179,1.107,1.714,1.702c0.627,0.692,0.978,1.519,0.935,2.476
			c-0.005,0.064-0.032,0.135-0.064,0.254c-0.098-0.054-0.189-0.081-0.243-0.141c-2.275-2.286-4.557-4.566-6.81-6.874
			c-1.503-1.541-2.875-3.194-4.054-5.005c-0.189-0.286-0.399-0.459-0.74-0.508c-0.265-0.043-0.519-0.141-0.778-0.217
			c-0.627-0.184-0.713-0.146-1.032,0.449c-0.049,0.081-0.087,0.173-0.184,0.367c-0.194-0.232-0.379-0.411-0.519-0.616
			c-0.838-1.194-1.232-2.551-1.379-3.972c-0.118-1.113-0.151-2.238-0.188-3.356c-0.055-1.514-0.07-3.026-0.114-4.54
			c-0.005-0.313-0.069-0.621-0.129-1.07c-0.173,0.217-0.266,0.336-0.357,0.449c-0.367,0.459-0.713,0.476-1.075,0.032
			c-0.562-0.687-0.746-2.173-0.086-2.87c0.081-0.086,0.146-0.188,0.265-0.346c-0.189-0.173-0.341-0.378-0.541-0.476
			c-0.724-0.362-1.037-0.875-0.653-1.762c-0.319-0.054-0.573-0.098-0.821-0.141c-1.384-0.216-2.157-0.935-2.346-2.318
			c-0.087-0.616-0.049-1.265,0.016-1.892c0.103-0.994,0.379-1.962,0.74-2.875c1.184-0.26,1.546-0.06,1.881,1.06
			c0.39-0.114,0.395-0.449,0.454-0.735c0.146-0.697,0.141-0.697,0.638-1.103c0.006-0.411-0.27-0.54-0.616-0.546
			c-0.41,0-0.826,0.038-1.243,0.064c-0.243,0.012-0.491,0.087-0.724,0.044c-0.567-0.113-0.897,0.178-1.108,0.627
			c-0.227,0.459-0.383,0.951-0.578,1.421c-0.248,0.6-0.681,0.946-1.351,0.936c-0.454-0.006-0.616-0.114-0.735-0.552
			c-0.07-0.265-0.081-0.535-0.135-0.8c-0.038-0.216-0.06-0.438-0.146-0.638c-0.156-0.384-0.361-0.465-0.74-0.313
			c-1.519,0.6-3.059,0.557-4.609,0.205c-0.849-0.194-1.605-0.583-2.205-1.243c-0.357-0.394-0.644-0.832-0.778-1.448
			c0.491,0.103,0.913,0.189,1.356,0.281c0.188-0.454-0.076-1.016,0.41-1.389c0.168,0.254,0.313,0.497,0.481,0.729
			c0.497,0.659,1.021,0.838,1.794,0.535c0.589-0.232,1.151-0.541,1.719-0.816c0.865-0.416,1.265-0.524,2.021-0.524
			c0.384,0.806,0.805,1.638,0.983,2.546c0.168,0.881,0.243,1.778,0.356,2.664c0.94-0.237,1.119-0.875,0.584-2.297
			c2.032-1.026,4.054-2.054,6.437-1.167c0.027,0.438,0.032,0.827,0.076,1.211c0.048,0.405,0.237,0.745,0.589,0.973
			c0.281,0.178,0.584,0.28,0.886,0.064c0.995-0.708,2.092-0.729,3.232-0.508c0.119,0.021,0.243,0.016,0.367,0.016
			c0.038,0,0.076-0.043,0.179-0.097c-0.4-0.481-1.205-0.697-1.017-1.61c1.324-0.125,2.691-0.2,3.967-0.697
			c1.265-0.492,2.497-1.07,3.772-1.627c0.146,0.503,0.021,1.011-0.173,1.459c-0.265,0.627-0.557,1.271-0.978,1.789
			c-0.568,0.691-1.254,1.292-1.925,1.892c-0.535,0.481-1.135,0.729-1.918,0.725c-0.865-0.006-1.757,0.173-2.578,0.442
			c-2.011,0.66-2.935,2.271-2.562,4.351c0.124,0.692,0.378,1.362,0.595,2.038c0.156,0.508,0.34,1.011,0.519,1.519
			c-0.692,0.313-1.038-0.384-1.605-0.465c0.346,1.378,0.687,2.724,1.032,4.097c0.405-0.168,0.729-0.33,1.081-0.433
			c0.405-0.124,0.768-0.075,1.141,0.243c4.712,4.091,10.209,6.712,16.11,8.577c0.092,0.026,0.189,0.037,0.341,0.07
			c0.086-0.271,0.151-0.524,0.243-0.768c0.081-0.222,0.184-0.438,0.308-0.74c0.578,0.632,0.422,1.404,0.708,2.097
			c0.228-0.054,0.454-0.113,0.676-0.162c0.433-0.098,0.854-0.217,1.286-0.275c1.135-0.157,1.74,0.453,1.535,1.626
			c-0.827,0.228-1.416-0.751-2.249-0.508c-0.118,0.681,0.104,1.135,0.763,1.47c0.745,0.373,1.551,0.438,2.361,0.303
			c0.449-0.081,0.887-0.248,1.313-0.421c0.13-0.049,0.292-0.276,0.265-0.373c-0.043-0.151-0.205-0.335-0.362-0.384
			c-0.248-0.081-0.529-0.07-0.794-0.081c-0.838-0.032-0.968-0.265-0.541-1.13c0.443,0.238,0.925,0.427,1.324,0.729
			c0.616,0.471,1.228,0.974,1.762,1.541c1.605,1.691,3.546,2.545,5.869,2.54c0.168,0,0.336,0.032,0.541,0.054
			c-0.092,1.005-0.232,1.967-0.249,2.94c-0.016,0.967,0.092,1.935,0.151,2.978c-0.497-0.173-0.983-0.373-1.491-0.514
			c-0.936-0.265-1.875-0.54-2.826-0.729c-0.66-0.135-1.341-0.092-2.124,0.13c0.275,0.303,0.453,0.562,0.691,0.751
			c0.691,0.546,1.405,1.06,2.107,1.584c0.665,0.497,1.346,0.978,1.983,1.502c0.471,0.39,0.849,0.87,1.124,1.427
			c-0.87,0.286-0.924-0.151-1.188-1.054c-0.811-0.205-1.378,0.713-2.243,0.519c-0.032-0.167-0.086-0.352-0.097-0.535
			c-0.07-0.896-0.557-1.502-1.341-1.864c-0.557-0.249-1.141-0.427-1.713-0.644c-0.335-0.124-0.665-0.254-1.103-0.416
			c0.205,0.584,0.54,0.93,0.908,1.243c0.41,0.346,0.843,0.67,1.231,1.032c0.498,0.471,0.778,1.043,0.763,1.789
			c-0.573-0.06-0.94-0.378-1.265-0.729c-0.384-0.411-0.729-0.854-1.098-1.281c-0.097-0.113-0.194-0.222-0.303-0.318
			c-0.567-0.53-0.859-0.503-1.297,0.119c-0.064,0.097-0.124,0.205-0.243,0.389c-1.156-1.205-2.427-2.199-3.978-2.87
			c0.179,0.925,1.222,2.2,2.476,3.081c1.086,0.762,2.318,1.222,3.739,1.632c-0.886,0.384-1.67,0.481-2.448,0.584
			c-3.188,0.433-5.982-0.465-8.452-2.491c-1.465-1.194-2.719-2.595-3.956-4.016c-0.146-0.162-0.292-0.324-0.443-0.486
			C119.037,103.052,118.978,103.052,118.902,103.025z M131.348,102.868c-1.118-0.811-5.647-2.815-6.291-2.794
			C125.641,102.09,130.105,103.809,131.348,102.868z"/>
		<path fill-rule="evenodd" clip-rule="evenodd" d="M104.391,37.745c-1.06-0.979-1.146-2.124-0.524-3.454
			c-1.324,0.151-2.367,0.503-2.967,1.643c-0.189,0.367-0.309,0.772-0.503,1.135c-0.286,0.535-0.605,1.054-0.924,1.573
			c-0.238,0.384-0.589,0.454-1.021,0.373c-0.751-0.141-1.346-0.541-1.854-1.098c-0.552-0.616-1.098-1.237-1.67-1.892
			c0.184-0.265,0.491-0.216,0.768-0.237c0.653-0.049,1.318-0.065,1.967-0.146c0.514-0.064,0.989-0.259,1.329-0.746
			c-0.184-0.47-0.572-0.648-1.032-0.622c-0.384,0.016-0.767,0.125-1.15,0.195c-0.336,0.059-0.665,0.146-1.006,0.173
			c-0.313,0.032-0.562-0.119-0.734-0.389c-0.303-0.449-0.276-0.708,0.205-0.946c0.41-0.2,0.87-0.324,1.313-0.438
			c0.61-0.151,1.243-0.243,1.854-0.405c0.54-0.14,0.968-0.454,1.156-1.048c-0.194-0.157-0.373-0.297-0.595-0.476
			c-0.615,0.74-1.502,0.946-2.442,0.989c-0.983,0.048-1.94-0.07-2.87-0.632c0.185-0.125,0.309-0.232,0.454-0.303
			c3.097-1.486,6.308-2.638,9.712-3.172c2.335-0.368,4.664-0.454,6.95,0.313c0.557,0.189,1.097-0.054,1.313-0.622
			c0.146-0.373,0.151-0.805,0.205-1.21c0.032-0.227-0.092-0.503,0.303-0.687c0.075,0.146,0.211,0.286,0.227,0.443
			c0.044,0.411,0.055,0.827,0.055,1.243c0.011,1.238,0.005,2.48,0.005,3.821c-0.535-0.178-0.945-0.308-1.351-0.454
			c-0.497-0.184-0.562-0.627-0.557-1.146c-0.795,0.297-1.373,0.768-1.859,1.346c-0.644,0.762-1.06,1.665-1.237,2.626
			c-0.298,1.583-0.509,3.178-0.752,4.772c-0.103,0.643-0.188,1.291-0.297,2.011c-0.399-0.141-0.724-0.232-1.032-0.368
			c-0.47-0.205-0.93-0.433-1.389-0.659c-0.93-0.465-1.876-0.687-2.87-0.237c-0.346-0.703-0.141-1.125,0.567-1.162
			c0.465-0.027,0.93,0.032,1.395,0.043c0.254,0.011,0.514,0.006,0.772,0.006C104.332,37.848,104.364,37.794,104.391,37.745z"/>
		<path fill-rule="evenodd" clip-rule="evenodd" d="M109.201,59.374c-0.41-0.266-0.578-0.616-0.562-1.017
			c0.016-0.454,0.038-0.935,0.2-1.356c0.275-0.746,0.653-1.454,0.999-2.194c0.336,0.136,0.579,0.249,0.833,0.33
			c0.562,0.194,1.054,0.075,1.48-0.341c0.119-0.119,0.243-0.243,0.346-0.378c0.692-0.897,1.47-1.654,2.724-1.47
			c0.185-1.011-0.173-1.784-1.08-2.103c-0.654-0.228-1.368-0.33-2.064-0.379c-0.801-0.054-1.611,0.011-2.416,0.022
			c-0.292,0.005-0.584,0-0.919,0c-0.286-0.854-0.589-1.671-0.849-2.503c-0.222-0.734,0.017-1.442,0.194-2.199
			c0.757,0,1.503,0,2.286,0c0.113,0.491-0.118,0.908-0.286,1.324c-0.254,0.627-0.135,1.135,0.389,1.589
			c0.114-0.044,0.232-0.07,0.341-0.119c1.443-0.681,2.983-0.935,4.556-0.87c1.729,0.075,3.454,0.26,5.265,0.399
			c-0.26,0.768-0.735,1.2-1.416,1.433c-0.708,0.249-1.443,0.194-2.168,0.087c-0.572-0.093-1.14-0.2-1.751-0.309
			c-0.135,0.61,0.011,1.07,0.417,1.443c0.231,0.211,0.497,0.389,0.751,0.578c0.362,0.281,0.632,0.632,0.627,1.103
			c0,0.194-0.07,0.47-0.211,0.567c-0.902,0.627-0.913,1.486-0.719,2.421c0.07,0.324,0.162,0.644,0.259,1.027
			c-0.604-0.125-0.858-0.52-1.135-0.887c-0.297-0.399-0.605-0.772-1.054-0.832c-1.06,0.589-2.064,1.141-3.059,1.708
			c-0.806,0.459-1.465,1.059-1.751,1.973C109.336,58.72,109.282,59.033,109.201,59.374z"/>
		<path fill-rule="evenodd" clip-rule="evenodd" d="M115.843,57.785c-0.179,0.973,0.081,1.772,0.433,2.556
			c0.113,0.26,0.14,0.557,0.205,0.838c-0.552,0.162-3.697,0.2-4.659,0.07c-0.248-1.108,0.271-2.222,1.313-2.805
			C113.941,58.001,114.816,57.85,115.843,57.785z"/>
		<path fill-rule="evenodd" clip-rule="evenodd" d="M97.1,61.243c-2.334-0.372-4.328-4.464-2.864-7.02
			c0.908,0.107,1.26,0.567,1.017,1.416c-0.125,0.41-0.352,0.8-0.541,1.194c-0.135,0.28-0.286,0.551-0.438,0.837
			c0.746,0.141,0.746,0.141,1.297-0.973C96.09,58.25,96.587,59.72,97.1,61.243z"/>
		<path fill-rule="evenodd" clip-rule="evenodd" d="M106.191,48.83c-0.151,1.566-1.043,2.34-2.519,2.297
			c-0.346-0.012-0.535-0.162-0.67-0.454c-0.249-0.535-0.335-1.103-0.319-1.778c0.205,0.141,0.362,0.232,0.503,0.352
			c0.454,0.399,0.935,0.432,1.476,0.146c0.378-0.205,0.789-0.362,1.188-0.529C105.937,48.824,106.04,48.841,106.191,48.83z"/>
		<path fill-rule="evenodd" clip-rule="evenodd" d="M90.583,52.277c-0.849-0.043-1.438,0.74-2.286,0.622
			c-0.286-0.546-0.178-1.017,0.098-1.481c0.2-0.351,0.378-0.719,0.605-1.14C89.578,50.835,90.61,51.057,90.583,52.277z"/>
		<path fill-rule="evenodd" clip-rule="evenodd" d="M83.828,55.407c-0.833-1.292-0.984-2.735-0.984-4.211
			c0.822-0.048,1.108,0.114,1.173,0.801c0.06,0.572,0.006,1.161-0.032,1.74C83.952,54.294,83.881,54.851,83.828,55.407z"/>
	</g>
</g>
</svg>
