<?xml version="1.0" encoding="utf-8"?>
<!-- Generator: Adobe Illustrator 16.0.0, SVG Export Plug-In . SVG Version: 6.00 Build 0)  -->
<!DOCTYPE svg PUBLIC "-//W3C//DTD SVG 1.1//EN" "http://www.w3.org/Graphics/SVG/1.1/DTD/svg11.dtd">
<svg version="1.1" id="Vrstva_1" xmlns="http://www.w3.org/2000/svg" xmlns:xlink="http://www.w3.org/1999/xlink" x="0px" y="0px"
	 width="269px" height="100px" viewBox="0 0 269 100" enable-background="new 0 0 269 100" xml:space="preserve">
<g>
	<path fill="#1D1D1B" d="M70.267,27.499c2.308-0.411,3.559-2.353,3.559-4.594c0-3.474-2.438-5.007-5.652-5.007h-6.319v16.266h4.228
		v-6.256h0.043l3.991,6.256h5.263L70.267,27.499L70.267,27.499z M66.081,21.134h0.411c1.379,0,2.932,0.261,2.932,2.029
		c0,1.768-1.553,2.027-2.932,2.027h-0.411V21.134L66.081,21.134z M88.535,23.097h-3.927v1.08c-0.818-0.972-2.156-1.445-3.428-1.445
		c-3.28,0-5.544,2.718-5.544,5.89c0,3.169,2.308,5.909,5.586,5.909c1.295,0,2.652-0.494,3.345-1.596h0.041v1.229h3.927V23.097
		L88.535,23.097z M82.215,26.14c1.597,0,2.523,1.143,2.523,2.502c0,1.4-0.927,2.48-2.523,2.48c-1.598,0-2.523-1.08-2.523-2.48
		C79.691,27.282,80.617,26.14,82.215,26.14 M95.308,18.849c0,1.208-0.991,2.2-2.199,2.2c-1.209,0-2.201-0.992-2.201-2.2
		s0.992-2.2,2.201-2.2C94.316,16.648,95.308,17.641,95.308,18.849 M91.146,23.097h3.924v11.065h-3.924V23.097L91.146,23.097z
		 M101.972,34.164h-3.927v-7.83h-1.38v-3.237h1.38v-1.401c0-1.532,0.044-2.652,1.123-3.882c0.971-1.145,2.374-1.769,3.861-1.769
		c0.603,0,1.143,0.108,1.684,0.388v3.388c-0.451-0.194-0.863-0.367-1.381-0.367c-1.014,0-1.36,0.604-1.36,1.855v1.788h2.741v3.237
		h-2.741V34.164L101.972,34.164z M110.341,34.164h-3.927v-7.83h-1.38v-3.237h1.38v-1.401c0-1.532,0.045-2.652,1.123-3.882
		c0.97-1.145,2.373-1.769,3.859-1.769c0.605,0,1.145,0.108,1.684,0.388v3.388c-0.452-0.194-0.863-0.367-1.379-0.367
		c-1.016,0-1.36,0.604-1.36,1.855v1.788h2.739v3.237h-2.739V34.164L110.341,34.164z M125.763,28.879
		c0-3.775-2.223-6.147-6.061-6.147c-3.603,0-6.127,2.223-6.127,5.91c0,3.818,2.74,5.889,6.407,5.889
		c2.523,0,5.004-1.188,5.629-3.797h-3.773c-0.431,0.733-1.036,1.013-1.876,1.013c-1.62,0-2.46-0.862-2.46-2.458h8.261V28.879
		L125.763,28.879z M117.567,27.022c0.236-1.143,1.184-1.746,2.327-1.746c1.059,0,2.028,0.689,2.223,1.746H117.567L117.567,27.022z
		 M131.716,18.849c0,1.208-0.993,2.2-2.2,2.2s-2.2-0.992-2.2-2.2s0.993-2.2,2.2-2.2S131.716,17.641,131.716,18.849 M127.553,23.097
		h3.926v11.065h-3.926V23.097L127.553,23.097z M141.378,25.945c-0.604-0.323-1.444-0.54-2.112-0.54c-0.452,0-1.23,0.194-1.23,0.754
		c0,0.755,1.23,0.863,1.77,0.972c1.833,0.368,3.213,1.229,3.213,3.278c0,2.913-2.652,4.121-5.22,4.121
		c-1.575,0-3.127-0.453-4.466-1.274l1.425-2.737c0.798,0.561,2.136,1.122,3.105,1.122c0.497,0,1.229-0.238,1.229-0.843
		c0-0.864-1.229-0.904-2.461-1.228c-1.228-0.325-2.457-0.929-2.457-2.912c0-2.72,2.457-3.927,4.875-3.927
		c1.252,0,2.503,0.194,3.646,0.711L141.378,25.945L141.378,25.945z M156.499,28.879c0-3.775-2.223-6.147-6.062-6.147
		c-3.602,0-6.126,2.223-6.126,5.91c0,3.818,2.74,5.889,6.407,5.889c2.522,0,5.004-1.188,5.628-3.797h-3.774
		c-0.431,0.733-1.034,1.013-1.877,1.013c-1.617,0-2.457-0.862-2.457-2.458h8.261V28.879L156.499,28.879z M148.302,27.022
		c0.238-1.143,1.187-1.746,2.329-1.746c1.057,0,2.027,0.689,2.222,1.746H148.302L148.302,27.022z M162.213,24.521h0.043
		c0.908-1.338,2.008-1.79,3.539-1.79c2.977,0,4.163,1.877,4.163,4.594v6.839h-3.927v-5.394c0-1.057,0.173-2.911-1.768-2.911
		c-1.596,0-2.051,1.186-2.051,2.567v5.737h-3.925V23.097h3.925V24.521L162.213,24.521z M68.276,44.619h0.303
		c1.144,0,2.449,0.086,2.211,1.576c-0.217,1.383-1.415,1.576-2.536,1.576h-0.478L68.276,44.619L68.276,44.619z M68.499,57.665
		c2.981,0,6.075-1.125,6.616-4.537c0.358-2.268-0.386-3.842-2.67-4.146l0.008-0.042c1.422-0.672,2.087-1.859,2.318-3.329
		c0.493-3.109-1.274-4.234-4.168-4.234h-6.047l-2.581,16.288H68.499L68.499,57.665z M67.277,50.926h0.432
		c1.383,0,3.509-0.194,3.196,1.771c-0.283,1.792-2.39,1.727-3.642,1.727h-0.54L67.277,50.926L67.277,50.926z M87.025,54.835
		l0.61,2.83h4.515l-3.555-16.288h-4.621l-8.844,16.288h4.491l1.572-2.83H87.025L87.025,54.835z M86.395,51.596h-3.521l2.569-5.186
		h0.043L86.395,51.596L86.395,51.596z M96.05,41.377h4.231l6.176,9.96h0.045l1.576-9.96h4.233l-2.578,16.288H105.5l-6.175-9.979
		h-0.043l-1.579,9.979h-4.235L96.05,41.377L96.05,41.377z M124.473,41.377h5.247l-7.7,7.712l5.705,8.576h-5.484l-4.349-7.062h-0.044
		l-1.117,7.062h-4.233l2.579-16.288h4.233l-1.064,6.719h0.043L124.473,41.377L124.473,41.377z"/>
	<path fill="#1D1D1B" d="M16.661,69.805h1.724c1.905,0,3.394,0.695,3.055,2.836c-0.135,0.848-0.569,1.57-1.354,2.042
		c1.203,0.307,1.762,1.434,1.564,2.684c-0.331,2.085-2.145,2.919-4.217,2.919H15L16.661,69.805L16.661,69.805z M16.341,79.202h1.168
		c1.306,0,2.732-0.321,2.985-1.92c0.259-1.625-1.26-1.861-2.54-1.861h-1.016L16.341,79.202L16.341,79.202z M17.099,74.419h0.444
		c1.32,0,2.471-0.152,2.729-1.778c0.25-1.585-0.723-1.753-2.156-1.753h-0.457L17.099,74.419L17.099,74.419z"/>
	<path fill="#1D1D1B" d="M28.86,80.286h-1.112l0.144-0.904h-0.028c-0.685,0.723-1.507,1.085-2.424,1.085
		c-1.919,0-2.868-1.626-2.584-3.436c0.296-1.861,1.729-3.46,3.69-3.46c0.89,0,1.629,0.417,2.062,1.111h0.028l0.147-0.931h1.112
		L28.86,80.286L28.86,80.286z M24.009,76.949c-0.203,1.278,0.355,2.489,1.747,2.489c1.432,0,2.365-1.155,2.574-2.475
		c0.206-1.307-0.446-2.363-1.822-2.363C25.216,74.601,24.203,75.728,24.009,76.949"/>
	<path fill="#1D1D1B" d="M32.939,74.544h0.027c0.558-0.627,1.21-0.973,2.017-0.973c1.808,0,2.017,1.308,1.774,2.836l-0.613,3.879
		h-1.112l0.583-3.685c0.168-1.056,0.233-2.002-1.06-2.002c-1.529,0-1.851,1.418-2.035,2.587l-0.491,3.1h-1.111l1.035-6.534h1.111
		L32.939,74.544L32.939,74.544z"/>
	<polygon fill="#1D1D1B" points="39.966,76.17 42.726,73.752 44.213,73.752 40.979,76.532 43.707,80.286 42.232,80.286 
		40.076,77.311 39.737,77.604 39.313,80.286 38.202,80.286 40.019,68.816 41.13,68.816 39.966,76.17 	"/>
	<path fill="#1D1D1B" d="M50.754,80.286h-1.112l0.144-0.904h-0.028c-0.686,0.723-1.507,1.085-2.424,1.085
		c-1.918,0-2.869-1.626-2.583-3.436c0.295-1.861,1.729-3.46,3.689-3.46c0.891,0,1.63,0.417,2.062,1.111h0.027l0.147-0.931h1.112
		L50.754,80.286L50.754,80.286z M45.902,76.949c-0.202,1.278,0.357,2.489,1.748,2.489c1.43,0,2.364-1.155,2.572-2.475
		c0.207-1.307-0.443-2.363-1.822-2.363C47.108,74.601,46.096,75.728,45.902,76.949"/>
	<path fill="#1D1D1B" d="M58.412,80.286h-1.11l1.033-6.534h1.112L58.412,80.286L58.412,80.286z M60.074,71.291
		c-0.07,0.445-0.488,0.794-0.919,0.794c-0.429,0-0.737-0.349-0.666-0.794c0.067-0.43,0.486-0.791,0.918-0.791
		C59.838,70.5,60.143,70.861,60.074,71.291"/>
	<path fill="#1D1D1B" d="M62.756,74.544h0.028c0.558-0.627,1.21-0.973,2.016-0.973c1.808,0,2.019,1.308,1.776,2.836l-0.614,3.879
		h-1.113l0.584-3.685c0.168-1.056,0.235-2.002-1.06-2.002c-1.528,0-1.852,1.418-2.035,2.587l-0.491,3.1h-1.113l1.036-6.534h1.111
		L62.756,74.544L62.756,74.544z"/>
	<path fill="#1D1D1B" d="M71.511,75.267c-0.099-0.348-0.381-0.666-0.785-0.666c-0.389,0-0.854,0.306-0.919,0.723
		c-0.097,0.597,0.619,0.819,1.334,1.14c0.714,0.32,1.392,0.779,1.216,1.877c-0.195,1.236-1.337,2.127-2.545,2.127
		c-1.099,0-1.86-0.627-2.046-1.655l1.053-0.418c0.181,0.613,0.433,1.045,1.171,1.045c0.596,0,1.119-0.403,1.214-1.002
		c0.23-1.459-2.796-0.958-2.471-3.017c0.176-1.098,1.183-1.849,2.24-1.849c0.751,0,1.361,0.527,1.546,1.209L71.511,75.267
		L71.511,75.267z"/>
	<path fill="#1D1D1B" d="M75.563,74.683h0.03c0.654-0.721,1.522-1.111,2.426-1.111c1.918,0,2.865,1.654,2.58,3.46
		c-0.295,1.864-1.726,3.436-3.687,3.436c-0.888,0-1.647-0.39-2.062-1.099h-0.029l-0.727,4.587h-1.111l1.615-10.203h1.113
		L75.563,74.683L75.563,74.683z M75.149,76.949c-0.203,1.278,0.357,2.489,1.746,2.489c1.433,0,2.365-1.155,2.574-2.475
		c0.207-1.307-0.445-2.363-1.821-2.363C76.355,74.601,75.344,75.727,75.149,76.949"/>
	<path fill="#1D1D1B" d="M82.961,80.286H81.85l1.033-6.534h1.114L82.961,80.286L82.961,80.286z M84.623,71.291
		c-0.071,0.445-0.487,0.794-0.919,0.794c-0.43,0-0.736-0.349-0.667-0.794c0.069-0.43,0.488-0.791,0.918-0.791
		C84.386,70.5,84.689,70.861,84.623,71.291"/>
	<path fill="#1D1D1B" d="M87.263,74.461h0.026c0.472-0.514,0.864-0.89,1.587-0.89c0.376,0,0.661,0.125,0.954,0.306l-0.689,1.016
		c-0.199-0.154-0.33-0.292-0.621-0.292c-1.224,0-1.528,1.569-1.663,2.418l-0.517,3.268h-1.111l1.034-6.534h1.111L87.263,74.461
		L87.263,74.461z"/>
	<path fill="#1D1D1B" d="M89.871,77.031c0.304-1.917,2.062-3.46,3.982-3.46c1.917,0,3.188,1.543,2.885,3.46
		c-0.304,1.919-2.074,3.436-3.978,3.436C90.856,80.467,89.567,78.95,89.871,77.031 M90.985,77.019
		c-0.211,1.334,0.562,2.42,1.938,2.42c1.375,0,2.492-1.086,2.704-2.42c0.21-1.32-0.562-2.418-1.938-2.418
		S91.194,75.698,90.985,77.019"/>
	<polygon fill="#1D1D1B" points="100.26,78.146 102.901,73.752 104.151,73.752 99.853,80.716 97.743,73.752 99.009,73.752 
		100.26,78.146 	"/>
	<path fill="#1D1D1B" d="M110.152,80.286h-1.113l0.143-0.904h-0.027c-0.686,0.723-1.506,1.085-2.423,1.085
		c-1.919,0-2.871-1.626-2.585-3.436c0.295-1.861,1.73-3.46,3.69-3.46c0.89,0,1.629,0.417,2.062,1.111h0.027l0.148-0.931h1.11
		L110.152,80.286L110.152,80.286z M105.301,76.949c-0.203,1.278,0.354,2.489,1.744,2.489c1.434,0,2.366-1.155,2.576-2.475
		c0.207-1.307-0.447-2.363-1.823-2.363C106.508,74.601,105.493,75.728,105.301,76.949"/>
	<path fill="#1D1D1B" d="M114.23,74.544h0.026c0.56-0.627,1.212-0.973,2.018-0.973c1.808,0,2.018,1.308,1.775,2.836l-0.616,3.879
		h-1.111l0.584-3.685c0.167-1.056,0.233-2.002-1.061-2.002c-1.527,0-1.851,1.418-2.034,2.587l-0.491,3.1h-1.112l1.035-6.534h1.111
		L114.23,74.544L114.23,74.544z"/>
	<path fill="#1D1D1B" d="M125.511,80.286h-1.111l0.144-0.904h-0.027c-0.686,0.723-1.508,1.085-2.425,1.085
		c-1.918,0-2.871-1.626-2.584-3.436c0.295-1.861,1.73-3.46,3.69-3.46c0.89,0,1.63,0.417,2.062,1.111h0.027l0.147-0.931h1.112
		L125.511,80.286L125.511,80.286z M120.66,76.949c-0.203,1.278,0.357,2.489,1.746,2.489c1.432,0,2.365-1.155,2.573-2.475
		c0.208-1.307-0.444-2.363-1.82-2.363C121.866,74.601,120.854,75.728,120.66,76.949 M125.912,70.47l-2.383,2.142l-0.675-0.388
		l2.043-2.281L125.912,70.47L125.912,70.47z"/>
	<polygon fill="#1D1D1B" points="133.559,76.17 136.318,73.752 137.806,73.752 134.571,76.532 137.3,80.286 135.826,80.286 
		133.669,77.311 133.331,77.604 132.907,80.286 131.795,80.286 133.611,68.816 134.724,68.816 133.559,76.17 	"/>
	<polygon fill="#1D1D1B" points="139.468,80.286 138.355,80.286 140.172,68.816 141.284,68.816 139.468,80.286 	"/>
	<path fill="#1D1D1B" d="M142.858,80.286h-1.11l1.033-6.534h1.113L142.858,80.286L142.858,80.286z M144.52,71.291
		c-0.069,0.445-0.486,0.794-0.917,0.794s-0.737-0.349-0.667-0.794c0.068-0.43,0.487-0.791,0.918-0.791
		C144.285,70.5,144.589,70.861,144.52,71.291"/>
	<path fill="#1D1D1B" d="M146.217,77.255c-0.177,1.21,0.53,2.184,1.796,2.184c0.944,0,1.646-0.571,2.201-1.35l0.858,0.542
		c-0.811,1.168-1.973,1.836-3.307,1.836c-1.946,0-2.962-1.487-2.664-3.366c0.307-1.931,1.684-3.529,3.729-3.529
		c2.098,0,2.936,1.736,2.517,3.684H146.217L146.217,77.255z M150.327,76.309c-0.002-0.943-0.674-1.708-1.647-1.708
		c-0.958,0-1.969,0.765-2.258,1.708H150.327L150.327,76.309z"/>
	<path fill="#1D1D1B" d="M154.417,74.544h0.027c0.558-0.627,1.21-0.973,2.017-0.973c1.809,0,2.018,1.308,1.775,2.836l-0.614,3.879
		h-1.111l0.583-3.685c0.166-1.056,0.233-2.002-1.06-2.002c-1.528,0-1.851,1.418-2.036,2.587l-0.491,3.1h-1.112l1.036-6.534h1.111
		L154.417,74.544L154.417,74.544z"/>
	<polygon fill="#1D1D1B" points="160.902,80.286 159.79,80.286 160.663,74.78 159.982,74.78 160.144,73.752 160.824,73.752 
		161.196,71.4 162.31,71.4 161.938,73.752 163.105,73.752 162.941,74.78 161.774,74.78 160.902,80.286 	"/>
	<polygon fill="#1D1D1B" points="163.021,73.752 164.313,73.752 165.88,78.437 168.733,73.752 170,73.752 163.56,83.955 
		162.294,83.955 165.086,79.674 163.021,73.752 	"/>
	<polygon fill="#FFED00" points="15.865,56.99 54.533,56.99 54.533,18.387 15.865,18.387 15.865,56.99 	"/>
	<path fill="#1D1D1B" d="M15.438,17.892h39.726l0.001,39.754l-39.727,0.001V17.892L15.438,17.892z M16.502,56.534l37.542,0.013
		V19.013l-37.546-0.005L16.502,56.534L16.502,56.534z M35.238,42.549l11.957,11.929l4.683-4.68L39.907,37.835l2.333-2.311
		l0.002-4.654l1.661-1.663l0.005,3.86l1.625,1.601l5.839-5.845l1.578,1.56c0-1.003-0.296-4.463-3.072-7.171
		c-3.111-3.031-6.224-1.26-7.295-0.186l-5.642,5.637l1.404,1.402l-3.107,3.097l-3.104-3.097l1.401-1.402L27.9,23.026
		c-1.073-1.074-4.187-2.846-7.296,0.186c-2.779,2.708-3.01,6.169-3.01,7.172l1.514-1.561l5.838,5.845l1.627-1.618l0.004-3.843
		l1.661,1.663l-0.003,4.642l2.339,2.327L18.723,49.68l4.676,4.665L35.238,42.549L35.238,42.549z"/>
</g>
</svg>
