<?xml version="1.0" encoding="utf-8"?>
<!-- Generator: Adobe Illustrator 16.0.0, SVG Export Plug-In . SVG Version: 6.00 Build 0)  -->
<!DOCTYPE svg PUBLIC "-//W3C//DTD SVG 1.1//EN" "http://www.w3.org/Graphics/SVG/1.1/DTD/svg11.dtd">
<svg version="1.1" id="Vrstva_1" xmlns="http://www.w3.org/2000/svg" xmlns:xlink="http://www.w3.org/1999/xlink" x="0px" y="0px"
	 width="55.833px" height="67px" viewBox="0 0 55.833 67" enable-background="new 0 0 55.833 67" xml:space="preserve">
<g>
	<path d="M13.958,5.583h27.917c1.677,0,2.792-1.117,2.792-2.791S43.552,0,41.875,0H13.958c-1.674,0-2.792,1.118-2.792,2.792
		S12.284,5.583,13.958,5.583 M53.042,39.083h-6.979l-6.979-27.916H33.5l6.979,27.916H15.354l6.979-27.916H16.75L9.771,39.083H2.792
		C1.118,39.083,0,40.201,0,41.875s1.118,2.792,2.792,2.792h50.25c1.676,0,2.791-1.118,2.791-2.792S54.718,39.083,53.042,39.083"/>
	<path d="M27.917,67c1.677,0,2.792-1.118,2.792-2.792V50.25h-5.583v13.958C25.125,65.882,26.243,67,27.917,67"/>
</g>
</svg>
